ID,Korean,English,Japanese,Russian,German,Spanish,French,Italian,Portuguese,Turkish,Chinese_s,Chinese_t,Thai
SignUp,닉네임 & 국가,Nickname & Country,ニックネーム & 国家,Имя и страна,Spielername und Land,Apodo & País,Pseudo et Pays,Nickname & Paese,Apelido e País,Kullanıcı adı & Ülke,昵称和国家,暱稱和國家,ชื่อเล่นและประเทศ
NicknameGuide,닉네임을 입력하세요. (3~15자),Enter nickname (3 to 15 characters),ニックネームを入力してください。(3～15文字),Введите имя (от 3 до 15 символов),Spielernamen eingeben (3 bis 15 Zeichen),Coloque un apodo (3 a 15 caracteres),Entrez un pseudo (3 à 15 caractères),Inserisci nickname (3-15 caratteri),Digite apelido (3-15 caracteres),Kullanıcı adını girin (3-15 karakter),请输入昵称（3~15个字符）,請輸入暱稱（3~15個字符）,กรอกชื่อเล่น (3-15 ตัวอักษร)
Settings,설정메뉴,Settings,設定メニュー,Настройки,Einstellungen,Ajustes,Réglages,Impostazioni,Configurações,Ayarlar,设置菜单,設置菜單,การตั้งค่า
LanguageSetting,언어설정,Language,言語設定,Язык,Sprache,Idioma,Langues,Lingua,Idioma,Dil,语言设置,語言設置,ภาษา
Credits,만든이들,Credits,スタッフ,Создатели,Credits,Créditos,Crédits,Crediti,Créditos,Jenerik,制作人员,製作人員,ขอขอบคุณ
RateUs,리뷰 남기기,Rate Us,レビューを書く,Оцените нас,Bewerte uns,Califícanos,Évaluez-nous,Valutaci,Nos avalie,Bize yıldız verin,评价我们,評價我們,ให้คะแนนเรา
Music,배경음악,Music,BGM,Музыка,Musik,Música,Musique,Musica,Música,Müzik,背景音乐,背景音樂,ดนตรี
RestorePurchases,구매내역\n복원,Purchase History\nRestore,購入履歴\n復元,История покупок\nВосстановить,Einkaufverlauf\nWiederherstellen,Historial de compras\nRestaurar,L’historique d’achats\nRestaurer,Storico Acquisti\nReset,Históricode compras\nRestaurar,Satın Alma Geçmişi\nGeri Yükle,购买历史\n恢复购买,購買歷史\n恢復購買,ประวัติการซื้อ\nกู้คืน
CustomerCenter,고객센터,Support,カスタマーセンター,Поддержка,Support,Soporte,Aide,Aiuto,Apoio ao Cliente,Destek,客服中心,客服中心,ความช่วยเหลือ
NicknameNation,닉네임 & 국가,Nickname & Country,ニックネーム & 国家,Имя и страна,Spielername und Land,Apodo & País,Pseudo et Pays,Nickname & Paese,Apelido e País,Kullanıcı adı & Ülke,昵称和国家,暱稱和國家,ชื่อเล่นและประเทศ
MoreGames,다른게임,More Games,他のゲーム,Еще игры,Mehr Spiele,Más Juegos,Plus de jeux,Più giochi,Mais Jogos,Daha Fazla Oyun,更多游戏,更多遊戲,เกมอื่น ๆ
Coupon,쿠폰,Coupon,クーポン,Купон,Coupon,Cupón,Coupon,Coupon,Cupom,Kupon,优惠券,優惠券,คูปอง
FacebookInfo,NANOO GAMES\n페이스북,NANOO GAMES on FACEBOOK,NANOO GAMES\nFacebook,NANOO GAMES на Facebook,NANOO GAMES auf Facebook,NANOO GAMES en Facebook,NANOO GAMES sur Facebook,NANOO GAMES su Facebook,NANOO GAMES em Facebook,NANOO GAMES Facebook'ta,Facebook上的NANOO GAMES,Facebook上的NANOO GAMES,NANOO GAMES บนเฟซบุ๊ค
FacebookLikeInfo,공식 페이스북 페이지\n‘좋아요’누르고 골드 받기,Like & Get GOLD\nFacebook Page,公式Facebookに\n「いいね！」をしてGOLD獲得,нравится & Получить золото\nFacebook,Like & Gold erhalten\Facebook-Seite,Gusta & Consigue Oro\nPágina de Facebook,Aimez & Obtenir de l'or\nNotre Site Facebook,Mi piace & Ottieni l'oro\nPagina di Facebook,Curtir & Obter ouro\nPágina de Facebook,Beğen & Altın almak\nFacebook Sayfası,点赞&获得黄金\nFacebook页面,喜歡&得到金子\nFacebook頁面,ถูกใจ & ได้ทอง\nบนเฟซบุ๊ค
TwitterInfo,NANOO GAMES\n트위터,NANOO GAMES on TWITTER,NANOO GAMES\nTwitter,NANOO GAMES на Twitter,NANOO GAMES auf Twitter,NANOO GAMES en Twitter,NANOO GAMES sur Twitter,NANOO GAMES su Twitter,NANOO GAMES em Twitter,NANOO GAMES Twitter'da,Twitter上的NANOO GAMES,Twitter上的NANOO GAMES,NANOO GAMES บนทวิตเตอร์
TwitterFollowInfo,공식 트위터\n팔로우하고 골드 받기,Follow & Get GOLD\nTwitter,公式Twitterを\nフォローしてGOLD獲得,Присоединиться & Получить золото\nTwitter,Folgen & Gold erhalten\nTwitter,Síguenos & Consigue Oro\nTwitter,Suivre & Obtenir de l'or\nTwitter,Segui & Ottieni l'oro\nTwitter,Seguir & Obter ouro\nTwitter,Takip & Altın almak\nTwitter,关注&得到金子\nTwitter,關注&得到金子\nTwitter,ติดตาม & ได้ทอง\nทวิตเตอร์
RouletteGameTitle,보너스 룰렛,Bonus Roulette,ボーナスルーレット,Бонусная рулетка,Bonus-Roulette,Bono de Ruleta,Roulette Bonus,Bonus Roulette,Roleta de Bônus,Bonus Rulet,奖金轮盘,獎金輪盤,วงล้อโบนัส
SpecialRouletteGameTitle,스페셜 룰렛,Special Roulette,スペシャルルーレット,Специальная рулетка,Spezial-Roulette,Ruleta especial,Roulette Spéciale,Roulette Speciale,Roleta Especial,Özel Rulet,特别轮盘,特別輪盤,วงล้อพิเศษ
RouletteSpin,돌리기,Spin,回す,Крутить,Drehen,Girar,Faire tourner,Spingi,Girar,Çevir,转动,轉動,หมุน
OK,확인,OK,確認,ОК,Ok,OK,OK,Ok,OK,Tamam,确认,確認,ตกลง
Cancel,취소,Cancel,キャンセル,Отмена,Abbrechen,Cancelar,Annuler,Annulla,Cancelar,İptal et,取消,取消,ยกเลิก
Close,닫기,Close,閉じる,Закрыть,Schließen,Cerrar,Fermer,Chiudi,Encerrar,Kapat,关闭,關閉,ปิด
ExitRacePopupText,기권하시겠습니까?\n참가비는 돌려받을 수 없습니다.,Give up now?\nEntrance fee will not be refunded.,棄権しますか？\n参加費は戻りません。,Отказаться сейчас?\nПлата за участие не будет возвращена.,Jetzt aufgeben?\nDie Zulassungsgebühr wird nicht zurückerstattet.,¿Rendirse ahora?\nLos honorarios de admisión no serán reembolsados.,Abandonner maintenant?\nLes frais d’admission ne seront pas remboursés.,Abbandona ora?\nIl credito non sarà rimborsato.,Quer mesmo desistir?\nA taxa de admissão não será reembolsada.,Pes mi ediyorsunuz?\nHizmet ücreti iade edilmeyecektir.,要弃权吗?\n无法返还参赛费。,要棄權嗎?\n無法返還參賽費。,ยอมแพ้ตอนนี้?\nค่าธรรมเนียมการสมัครจะไม่ถูกคืน.
DropOut,기권,Give up,棄,Отказаться,Aufgeben,Rendirse,Abandonner,Abbandona,Desistir,Pes et.,弃权,棄權,ยอมแพ้
NewSeasonButton,새로운\n시즌,New\nSeason,新\nシーズン,Новый\nСезон,Neue\nSaison,Nuevo\nTemporada,Nouvelle\nSaison,Nuova\nStagione,Nova\nÉpoca,Yeni\nSezon,新\n赛季,新季,ซีซั่น\nใหม่
FreeGoldButton,무료,Free,無料,Бесплатно,Gratis,Gratis,Gratuit,Gratis,Gratis,Ücretsiz,免费,免費,ฟรี
LuckyChance,행운의\n찬스,Lucky\nChance,ラッキー\nチャンス,Счастливый\nшанс,Glücks\nFall,Azar\nAfortunado,Essai\nChanceux,Giro\nFortunato,Roleta\nda Sorte,Şanslı\nSeçenek,幸运\n机会,幸運\n機會,โอกาส\nโชคดี
LuckyChanceStatusViewTitle,행운의 찬스,Lucky Chance,ラッキーチャンス,Счастливый шанс,Glücksfall,Turno de la Suerte,Essai Chanceux,Giro Fortunato,Roleta da Sorte,Şanslı Seçenek,幸运机会,幸運機會,โอกาสโชคดี
GameLeft,게임 남음,games left,ゲーム残り,игр осталось,spiele verbleiben,juegos restantes,parties restantes,Giochi rimasti,jogos restantes,kalan oyunlar,剩余游戏,剩餘遊戲,เกมที่ยังเหลืออยู่
PracticeField,연습 경기장,Practice Field,練習場,Поле тренировок,Übungsfeld,Campo de práctica,Terrain d'Exercice,Campo di allenamento,Campo de Treinamento,Pratik Yapma Alanı,练习场,練習場,สนามฝึกซ้อม
SkyCity,하늘 도시,Sky City,スカイシティー,Небесный Город,Himmelsstadt,Ciudad del Cielo,Cité du Ciel,Città celeste,Cidade do Céu,Gök Şehri,天空之城,天空之城,เมืองท้องฟ้า
ForestDome,몬스터 들판,Field of Monsters,モンスターフィールド,Поле Монстров,Monsterfeld,Campo de los Monstruos,Champs de monstres,Campo di mostri,Território de Monstros,Canavarlar Arazisi,怪物原野,怪物原野,ทุ่งสัตว์ประหลาด
Area52,52 구역,Area 52,52区域,Зона 52,Area 52,Área 52,Zone 52,Area 52,Área 52,52. Bölge,52 区,52區,พื้นที่ 52
DiamondCave,달 동굴,Moon Cave,月の洞窟,Лунная Пещера,Mondhöhle,Cueva de la Luna,Grotte Lunaire,Caverna lunare,Caverna da Lua,Ay Mağarası,月之洞窟,月之洞窟,ถ้ำดวงจันทร์
CoralHills,산호초 언덕,Coral Reef Hill,サンゴ礁の丘,Холм Кораллового Рифа,Korallenriff-Hügel,Colina de Arrecifes de Coral,Vallée de Corail,Collina di corallo,Morro Recife de Coral,Mercan Kayalıkları Tepesı,珊瑚礁山丘,珊瑚礁山丘,เนินเขาปะการัง
MultiButton,온라인 PvP,Online PvP,オンラインpvp,Против онлайн игрока,Online PvP,PvP en Línea,Multijoueur,PvP Online,Jogador vs Jogador Online,Çevrimiçi PvP,线上玩家对战,線上玩家對戰,PvP ออนไลน์
SingleButton,vs Com,vs Com,vs Com,Против компьютера,gegen KI,vs Com,Jouer contre l’ordinateur,Vs Com,vs Computador,vs Com,和电脑对战,和電腦對戰,vs คอม
NextRace,다음 경기,Race Again,次の競技,Следующий заезд,Nächstes Rennen,Próxima Carrera,Course Suivante,Prossima corsa,Próxima Corrida,Sıradaki Yarış,下一场比赛,下一場賽跑,การแข่งขันครั้งถัดไป
NextMap,다음 맵,Next Map,次のマップ,Следующая карта,Nächste Strecke,Siguiente mapa,Piste Suivante,Prossima mappa,Mapa Seguinte,Sonraki Harita,下一个地图,下一個地圖,แผนที่ถัดไป
LevelUp,레벨 업!,Level up!,レベルアップ！,Повышение уровня!,Level up!,¡Elevar al mismo nivel!,Level up!,Livello superato!,Subir Nível!,Seviyeni arttır!,升级!,升級!,เลเวลขึ้น!
Random,랜덤,Random,ランダム,Случайно,Zufall,Aleatorio,Aléatoire,Casuale,Aleatória,Rastgele,随机,隨機,สุ่ม
Rank,순위,Rank,順位,Ранг,Rang,Rango,Rang,Livello,Classificação,Sıra,排行榜,秩,อันดับ
Ranking,순위,Ranking,ランキング,Рейтинг,Rang,Clasificación,Classement,Classifica,Classificação,Sıralama,排行,排行,การจัดอันดับ
RankingInfo,경기에서 획득한 상금 기준,Based on acquired Gold from races,競技で獲得した賞金基準,По полученным в заездах наградам,Geordnet nach Rennbelohnungen,Basado en premios adquiridos en carreras,Basé sur les récompenses des courses,Basato su ricompense di altre corse,Baseado em prêmios ganhos em corridas,Yarışlardan kazanılmış ödüllere göre,根据比赛中获得的黄金排序,基於比賽中獲得的獎勵,ขึ้นกับรางวัลที่ได้รับจากการแข่งขัน
ThisWeek,주간,This Week,今週,Эта неделя,Diese Woche,Esta Semana,Cette Semaine,Questa settimana,Esta Semana,Bu Hafta,本周,本週,สัปดาห์นี้
LastWeek,지난주,Last Week,先週,Прошлая неделя,Letzte Woche,La Semana Pasada,La Semaine Dernière,La scorsa settimana,Semana Passada,Geçen Hafta,上周,上週,สัปดาห์ที่แล้ว
Nation,국가,Country,国家,Страна,Land,País,Pays,Paese,País,Ülke,国家,國家,ประเทศ
Store,상점,Shop,ショップ,Магазин,Shop,Tienda,Boutique,Negozio,Loja,Dükkan,商店,商店,ร้านค้า
TimeOut,타임아웃,Time Over,タイムアウト,Время вышло,Time-Out,Se acabó el tiempo,Temps écoulé,Tempo scaduto,Tempo esgotado,Zaman doldu,超时,暫停,หมดเวลา
Goal,골!,Goal!,ゴール！,Цель!,Ziel!,¡Meta!,Terminé!,Fine!,Bravo!,Hedef!,目标！,目標！,เข้าเส้นชัย!
Start,시작,Start,スタート,Старт,Start,Comenzar,Départ,Inizia,Partida,Başla,开始,開始,เริ่มต้น
CheckPoint,체크포인트,Checkpoint,チェックポイント,Контрольная точка,Checkpoint,Punto de Control,Point de contrôle,Checkpoint,Ponto de Verificação,Kontrol Noktası,检查点,檢查點,จุดตรวจ
StartPoint,스타트포인트,Starting point,スタートポイント,Стартовая точка,Startpunkt,Punto de Comienzo,Point de départ,Punto di inizio,Ponto de Partida,Başlama noktası,起始点,開始點,จุดเริ่มต้น
BannerTitle_0_Line0,2x 보너스,2x Bonus,2x ボーナス,Бонус х2,2x Bonus,Bono x2,Bonus x2,Bonus 2x,Bônus x2,x2 Bonus,2x 奖金,2x獎金,โบนัส 2 เท่า
BannerTitle_0_Line1,특가한정,Limited Special,特価限定,Особое ограниченное,Limitiertes Special,Especial Limitado,Objet Spécial,Edizione limitata,Edição Especial Limitada,Kısıtlı bir süreye özel,特价限量,特價限量,ของพิเศษจำนวนจำกัด
BannerTitle_1_Line0,3x 보너스,3x Bonus,3x ボーナス,Бонус х3,3x Bonus,Bono x3,Bonus x3,Bonus 3x,Bônus x3,x3 Bonus,3x 奖金,3x獎金,โบนัส 3 เท่า
BannerTitle_1_Line1,특가한정,Limited Special,特価限定,Особое ограниченное,Limitiertes Special,Especial Limitado,Objet Spécial,Edizione limitata,Edição Especial Limitada,Kısıtlı bir süreye özel,特价限量,特價限量,ของพิเศษจำนวนจำกัด
BannerTitle_2_Line0,보상광고,Video Ad,報酬広告,Награда за рекламу,Werbung für Belohnung,Anuncio de Premio,Récompense de Publicité,Video Ricompensa,Comercial para Prêmio,Ödül Reklamı,视频广告,獎勵廣告,โฆษณาแจกรางวัล
BannerTitle_2_Line1,광고를 시청하고 골드보상을 받으세요.,Watch a video ad and receive Gold.,広告を視聴してGOLD報酬を獲得してください。,Просмотри рекламный ролик и получи Золото в награду.,Sieh dir ein Video an und erhalte Gold als Belohnung.,Ver un anuncio de vídeo y recibir una recompensa de Oro.,Regardez une vidéo d’annonce et recevez une récompense en pièces d’or.,Guarda il video per ricevere la ricompensa.,Assista um vídeo comercial e receba um prêmio Ouro.,Video reklamı izleyin ve altın ödülü kazanın.,收看广告获得金币奖励吧。,收看廣告獲得金幣獎勵吧。,ชมวิดีโอโฆษณาและรับรางวัลเป็นทอง.
SpecialOffer,특가한정세일,Special Offer,特価限定セール,Special Offer,Sonderangebot,Oferta especial,Offre spéciale,Offerta Speciale,Oferta Especial,Özel Kampanya,特价商品,特價商品,ข้อเสนอพิเศษ
Guide1,컴퓨터와 연습경기를 진행합니다.,Practice against computers.,コンピューターと練習試合を行います。,Попрактиковаться против компьютера.,Übe gegen die KI.,Practicar contra las computadoras.,Entrainement contre l’ordinateur.,Allenati contro i PC.,Treinamento contra computadores.,Bilgisayar karşıtı uygulama.,与电脑进行练习比赛。,與電腦進行練習比賽。,ฝึกฝนกับคอมพิวเตอร์.
Tip1,출발 타이밍을 잘 맞추면 출발속도가 향상됩니다.,Get a boosted speed start with a perfectly timed tap.,出発のタイミングを合わせるとスタートの速度が上昇します。,Улучши начальную скорость засчет своевременного старта.,Erhöhe deine Startgeschwindigkeit mit einem gut getimten Start.,Mejora la velocidad de arranque con un inicio bien programado.,Améliorez la vitesse de départ en démarrant au bon moment.,Migliora la partenza usando i tempi giusti.,Melhore a velocidade de partida com um timing bem programado.,Başlama hızını zamanlaması iyi bir başlangıçla iyileştirin.,把握好出发时机，可提升出发速度。,把握好出發時機，可提升出發速度。,พัฒนาความเร็วเริ่มต้นด้วยการเริ่มต้นแบบถูกจังหวะ.
Tip2,벽점프 타이밍을 잘 맞추면 점프속도가 향상됩니다.,Increase speed with well-timed jumps from the walls.,壁ジャンプのタイミング合わせるとジャンプの速度が上昇します。,Улучши скорость прыжка засчет своевременных прыжков от стены.,Erhöhe deine Sprunggeschwindigkeit mit gut getimten Walljumps.,Mejora la velocidad de salto con saltos de muro bien programados.,Améliorez la vitesse de saut en sautant sur le mur au bon moment.,Migliora i salti con usando i tempi giusti sui muri.,Melhore a velocidade de salto com timing de saltos de parede bem cronometrados.,Zıplama hızını zamanlaması iyi duvar zıplamalarıyla iyileştirin.,把握好蹬墙跳时机，可提升跳跃速度。,把握好蹬牆跳時機，可提升跳躍速度。,พัฒนาความเร็วการกระโดดด้วยการกระโดดข้ามกำแพงแบบถูกจังหวะ.
Tip3,행운에 찬스는 수집한 배지의 종류에 따라 추가 보상을 지급합니다.,Lucky Chance roulette gives additional rewards based on the collected badges.,ラッキーチャンスは集めたバッジの種類によって追加報酬が配布されます。,Счастливый шанс дает дополнительные награды за собранные значки.,Glücksfall gibt dir zusätzliche Belohnungen je nach erhaltenen Abzeichen.,Lucky Chance concede recompensas adicionales basadas en las insignias recogidas.,Les Essais Chanceux permettent d’obtenir des récompenses supplémentaires en fonction des badges déjà obtenu.,Il Giro fortunato da ricompense aggiuntive in base alle medaglie già avute.,A Roleta da Sorte dá prêmios adicionais com base nos crachás recolhidos.,Şanslı Seçenek topladığınız rozetlere göre ek ödüller verir.,收集足够的徽章，可获得额外幸运机会的奖励。,幸運機會根據收集到的徽章，給予額外獎勵。,โอกาสโชคดีมอบรางวัลเพิ่มเติมโดยขึ้นกับตราที่เก็บสะสมมา.
Tip4,체크포인트를 통과해서 시작포인트로 돌아오세요.\n3바퀴를 완주하세요. 제한시간은 60초입니다.,Reach the checkpoint then return to the starting point.\nRepeat this for 3 laps.,チェックポイントを通過してスタートポイントに戻ってきてください。\n3周完走を目指してください。,Пройди через контрольную точку затем вернись к стартовой точке.\nПовтори 3 круга.,Gehe durch den Checkpoint und kehre zum Startpunkt zurück.\nMach das 3 Runden lang.,Vaya a través del punto de control y vuelva al punto de inicio.\nRepita durante 3 vueltas.,Allez au point de contrôle puis retournez au point de départ.\nRépéter pendant 3 tours.,Vai al checkpoint poi torna al punto di partenza.\nRipeti 3 volte.,Passe o ponto de verificação e depois retorne ao ponto de partida.\nRepita por 3 voltas.,Kontrol noktasından geçerek üç tur başlangıç noktasına dön.,请通过检查点再回到起始点。\n请跑完三圈。,請通過檢查點再回到起始點。\n請跑完三圈。,ผ่านจุดตรวจจากนั้นกลับไปที่จุดเริ่มต้น\nทำซ้ำ 3 รอบ.
Tip5,좌우측 화면을 터치해 원하는 방향으로 점프하세요.\n벽을 밟고 반대방향으로 점프하면 벽점프를 할 수 있어요.,Tap either side of the screen to jump left or right.\nTap away from the walls to perform wall jumps.,左右の画面をタッチして好きな方向にジャンプしてください。\n壁を蹴って反対方向にジャンプできます。,Нажми по соответствующей стороне экрана чтобы прыгнуть влево или вправо.\nНажми на противоположную сторону стены чтобы совершать прыжки от стены.,Tippe auf die entsprechende Seite des Bildschirms um nach links oder rechts zu springen.\nTippe auf die andere Seite einer Mauer um einen Walljump zu machen.,Toque cualquier lado de la pantalla para saltar a la izquierda o a la derecha.\nToque el lado opuesto del muro para realizar saltos en la pared.,Tapez sur un côté de l’écran pour sauter à droite ou à gauche.\nTaper du côté opposé au mur pour sauter sur le mur.,Tocca a destra o sinistra dello schermo per saltare a destra o sinistra.\nTocca i muri per saltare sui muri.,Toque em um dos lados da tela para pular para a esquerda ou direita.\nToque o lado oposto da parede para executar saltos de parede.,Sola veya sağa zıplamak için pencerenin sağ veya soluna tıklayın.\nDuvar zıplayışları için duvarın öteki taradına tıklayın.,点击屏幕任意一侧，即可向左跳或向右跳。\n点击墙对面\n进行蹬墙跳。,點擊屏幕任意一側，即可向左跳或向右跳。\n點擊牆對面\n進行蹬牆跳。,แตะที่ด้านข้างของหน้าจอเพื่อกระโดดไปทางซ้ายหรือขวา\nแตะที่ด้านตรงข้ามของกำแพงเพื่อกระโดดข้ามกำแพง.
Tip6,체크포인트와 스타트포인트를 통과하면 아이템을 획득합니다.\n아이템버튼을 눌러 사용하세요.,Earn power-ups by going through the checkpoints.\nTap on the power-up button to use.,チェックポイントとスタートポイントを通過するとアイテムを獲得することができます。\nアイテムボタンを押して使用してください。,Зарабатывай предметы увеличения энергии проходя через контрольные и стартовые точки.\nНажми на кнопку предмета чтобы использовать.,Erhalte ein Power-Up indem du durch die Checkpoints und den Startpunkt gehst.\nTippe auf den Item-Knopf um sie zu nutzen.,Gane un elemento de encendido pasando por el punto de control y el punto de inicio.\nToque el botón del elemento para usarlo.,Gagner des objets bonus en passant par le point de contrôle et le point de départ.\n Appuyez sur ces objets pour les utiliser.,Vinci un oggetto per essere più forte passando dal checkpoint o dal punto di partenza.\nClicca sull'oggetto per usarlo.,Ganhe um item de potência passando pelo ponto de verificação e ponto de partida.\nToque o botão do item para usá-lo.,Kontrol noktası ve başlangıç noktasından geçerek güç arttırma nesneleri kaza.\nKullanmak için nesnenin düğmesine basın.,通过检查点和起始点，赢得提升能力的物品。\n点击物品按钮即可使用。,通過檢查點和起始點，贏得提升能力的物品。\n點擊物品按鈕即可使用。,รับสิ่งของสำหรับเพิ่มพลังเมื่อผ่านจุดตรวจและจุดเริ่มต้น\nแตะที่ปุ่มสิ่งของเพื่อใช้.
Tip7,1위/2위/3위는 각각 금/은/동 배지를 받습니다.\n배지를 모두 모으면 행운의 찬스 룰렛을 돌릴 수 있습니다.,Win Gold&#44; Silver or Bronze badges!\nCollect badges to spin the Lucky Chance roulette.,1位 / 2位/ 3位はそれぞれ金 / 銀 / 銅のバッジを獲得できます。\nバッジをすべて集めるとラッキーチャンスルーレットを回すことができます。,1-ое / 2-ое / 3-е место приносит Золотой / Серебряный / Бронзовый значок соответственно.\nСобери все значки чтобы крутить рулетку Счастливого случая.,1./2./3. Platz erhalten respektive Gold- / Silber- / Bronze-Abzeichen.\nSammle alle Abzeichen um das Glücksfall-Roulette zu drehen.,El 1er / 2º / 3º lugar recibe la insignia de Oro / Plata / Bronce respectivamente.\nRecoja todas las insignias para hacer girar la Ruleta de la Fortuna.,Les 1ère / 2ème / 3ème places reçoivent respectivement les badges Or / Argent / Bronze.\nRécupérez tous les badges pour faire tourner la roulette Essai Chanceux.,Il 1° 2° e 3° posto vincono rispettivamente la medaglia d'oro&#44; d'argento o bronzo.\nRaccogli gli oggetti per attivare il Giro Fortunato alla roulette.,1º / 2º / 3º lugar recebe crachá Ouro / Prata / Bronze respectivamente.\nColete todos os crachás para girar a Roleta da Sorte.,1. 2. ve 3. olanlar sırasıyla Altın / Gümüş / Bronz rozet kazanır.\nTüm rozetleri toplayarak Şanslı Seçenek ruletini çevirin.,第1/第2/第3名分别获得金/银/铜徽章。\n集齐徽章，转动幸运转盘。,第1/第2/第3名分別獲得金/銀/銅徽章。\n集齊徽章，轉動幸運轉盤。,อันดับที่ 1/ที่ 2/ที่ 3 จะได้รับตราทอง / เงิน / ทองแดง ตามลำดับ\nเก็บสะสมตราทั้งหมดเพื่อหมุนวงล้อโอกาสโชคดี.
PotalTip,포탈의 입구로 들어가면 포탈 출구를 통해 빠르게 나올 수 있습니다.,Use the portals to move faster.,ポータルに入るとポータルの出口から素早く出ることができます。,Используй порталы чтобы двигаться быстрее.,Nutze die Portale um dich schneller zu bewegen.,Utilice los portales para moverse más rápido.,Utilisez les portails pour vous déplacer plus vite.,Usa i portali per saltare più velocemente.,Use os portais para se mover mais rápido.,Geçitleri kullanarak daha hızlı hareket edin.,使用传送门，可更快移动。,使用傳送門，可更快移動。,ใช้ช่องพิเศษเพื่อให้เคลื่อนที่ได้เร็วขึ้น.
BBBoardTip,디딤판에서 점프를하면 더욱 멀리 점프할 수 있습니다.,Jump from the yellow boost-wall to jump farther and faster.,踏み台でジャンプするとより遠くに跳ぶことができます。,Прыгай от ускоряющей стены чтобы прыгать дальше.,Springe von der Boost-Wand um weiter zu springen.,Salta desde la pared de impulso para saltar más lejos.,Sautez depuis le mur à boost pour sauter plus loin.,Salta dal muro per saltare più lontano.,Salte do impulsionador de parede para saltar mais longe.,İteleme duvarından zıplayarak daha ileriye ulaşın.,从加速墙上跳跃，可跳得更远。,從加速牆上跳躍，可跳得更遠。,กระโดดจากกำแพงตัวเร่งเพื่อให้กระโดดได้ไกลขึ้น.
Tutorial_0_0_0,처음이시군요.\n지금부터 경기진행 방식 및 조작법에 대한\n튜토리얼을 진행합니다.,Hello there. Looks like you’re new here.\nSo&#44; let’s jump right into the tutorial!,ようこそ。\n今から競技の進め方と操作方法について\nチュートリアルを行います。,Это должно быть твой первый раз! Давай начнём с обучения правилам и средствам управления.,Das ist wohl dein erstes Mal! Fangen wir mit einem Tutorial für die Regeln und die Steuerung an.,¡Seguro que esta es tu primera vez! Comecemos enseñándote las reglas y los comandos.,Ça doit être ton premier tour! Commençons avec un tutoriel pour les règles et les commandes.,Questa deve essere la tua prima volta! Cominciamo per il tutorial per illustrarti le regole ed i controli.,Esta deve ser sua primeira vez!\nVamos começar no tutorial sobre as regras e os controles.,Bu sizin ilk oynayışınız olmalı! Hadi kurallar ve kontroller ile ilgili eğitimimize başlayalım.,嗨，看起来你是新来的。\n那么&#44;让我们进入新手教程吧！,這一定是你第一次遊戲！我們開始教程吧相關規則和操縱方法。,นี่ต้องเป็นครั้งแรกของคุณแน่ ๆ ! มาเริ่มต้นการเรียนรู้ เกี่ยวกับกฎและการควบคุมกันเถอะ.
Tutorial_1_1_0,반드시 체크포인트 통과 후 시작포인트로\n돌아와야하며 총 3바퀴를 완주해야 합니다.,Welcome! Your goal is to reach the checkpoint and come back to the starting point. Complete 3 laps to finish the race.,必ずチェックポイントを通過した後にスタートポイントへ\n戻り、3周完走してください。,Начальная точка должна быть достигнута после контрольной точки. Завершите 3 круга маршрута.,Der Start muss nach dem Checkpoint erreicht werden. Beende 3 Runden um die Strecke.,Se debe alcanzar la meta tras el punto de control Completa tres vueltas de la ruta.,Le point de départ doit être traversé après le point de contrôle. Complète 3 tours de piste,Il punto di partenza dovrebbe essere raggiunto dopo il checkpoint. Completa 3 giri della corsa.,O ponto de partida deve ser alcançado após o ponto de verificação. Complete 3 voltas no circuito.,Kontrol noktasından sonra başlama noktasına ulaşılmalı. Güzergâhta 3 tur tamamlayın.,欢迎！你的目标是到达检查点之后回到起始点。跑完三圈，比赛就结束了。,到達檢查點後必須到達起始點。跑完路線三圈。,ต้องไปให้ถึงจุดเริ่มต้นหลังจากผ่านจุดตรวจไปแล้ว ไปตามเส้นทางให้ครบ 3 รอบ.
Tutorial_1_2_0,출발신호와 함께 우측버튼을 눌러 우측방향으로\n달리세요.,Tap the right side of the screen upon start to run towards the right.,出発の合図と同時に右のボタンを押して右方向へと\n走ってください。,Нажми Вправо чтобы начать движение вправо.,Tippe rechts nach dem Start um nach rechts zu gehen.,Toca justo all inicio para ir a la derecha.,Tappe à droite après le départ pour tourner à droite.,Tocca a destra finchè non incominci ad andare a destra.,Toque na direita ao iniciar para ir para a direita.,Startta sağa gitmek için sağa dokunun.,点击开始，然后点击右方，向右跑。,點擊開始，然後點擊右方，向右跑。,แตะด้านขวาเมื่อเริ่มต้นเพื่อไปทางขวา.
Tutorial_1_3_0,우측버튼을 눌러 우측방향으로 점프하세요.,Tap right again during the run to jump right.,右のボタンを押して右方向へジャンプしてください。,Нажми Вправо чтобы прыгнуть вправо.,Tippe rechts um nach rechts zu springen.,Toca a la derecha para saltar en esa dirección.,Tappe à droite pour sauter sur la droite.,Tocca a destra per saltare a destra.,Toque na direita para saltar para a direita.,Sağa atlamak için sağa dokunun.,点击右方，向右跳。,點擊右方，向右跳。,แตะด้านขวาเพื่อกระโดดไปทางขวา.
Tutorial_1_4_0,벽에 닿았을 때 반대방향버튼을 누르면\n벽점프를 할 수 있습니다.,Tap away from the wall to perform a wall jump.,壁についた時、反対方向のボタンを押すと\n壁ジャンプすることができます。,Нажми на противоположную сторонe стены чтобы запрыгнуть на стену.,Tippe auf die andere Seite der Wand um einen Walljump zu machen.,Toca la pared opuesta para saltar de pared en pared.,Tappe de l'autre côté du mur pour un saut mural.,Tocca il lato opposto della parete per saltare sui muri.,Toque no lado oposto da parede para executar saltos de parede.,Duvar atlayışı gerçekleştirmek için duvarın karşı tarafına dokunun.,点击墙对面进行蹬墙跳。,點擊牆對面進行蹬牆跳。,แตะที่ฝั่งตรงข้ามของกำแพง เพื่อกระโดดข้ามกำแพง.
Tutorial_1_5_0,잘했어요. 한번 더 반대방향버튼을 누르세요.,Nice! Tap away from the wall again.,よくできました。もう一度反対方向のボタンを押してください。,Отлично. Нажми на противоположную сторону еще раз.,Gut gemacht. Tippe nochmals auf die andere Seite.,Bien hecho. Toca el lado opuesto de nuevo.,Bien joué. Tappe encore une fois de l'autre côté.,Ottimo! Tocca il lato opposto un altra volta.,Bom trabalho.Toque no lado oposto uma vez mais.,Güzel. Karşı tarafa bir kez daha dokunun.,干得好。再次点击对面。,幹得好。再次點擊對面。,ยอดเยี่ยม แต่ที่ฝั่งตรงข้ามอีกครั้ง.
Tutorial_1_6_0,연속해서 벽점프 타이밍을 잘 맞추면 점점 가속이 붙습니다. 한번 더 시도하세요.,Remember&#44; well-timed wall jumps can increase your jump speed and distance. Try it once more!,壁ジャンプのタイミングを連続で合わせるとだんだんと加速していきます。もう一度やってみましょう。,Своевременные прыжки на стену увеличивают скорость прыжка. Попробуй еще раз.,Gut-getimte aufeinanderfolgende Walljumps erhöhen die Sprunggeschwindigkeit. Versuche es nochmal.,Los saltos de pared consecutivos aumentan la velocidad de salto. Una vez más.,Des sauts muraux bien minutés augmentent la vitesse de saut. Essaye encore.,Ricorda&#44; esegui i salti nel momento giusto per aumentare la velocità di salto. Tenta un altra volta.,Saltos consecutivos de parede com o ‘timing' certo aumentam a velocidade de salto. Tente uma vez mais.,İyi zamanlanmış arka arkaya duvar atlayışları atlama hızını artırır. Bir kez daha deneyin.,记住&#44;把握良好时机进行蹬墙跳，会增加跳跃速度和距离。再试一次！,時機把握良好的連續蹬牆跳會增加跳速。再試一次。,การกระโดดข้ามกำแพงแบบถูกจังหวะติดต่อกันจะเพิ่มความเร็วในการกระโดด ลองอีกครั้ง.
Tutorial_1_7_0,체크포인트를 통과하면 체크포인트가 활성화되며 무작위로 아이템을 받습니다.,Great! You have just passed a checkpoint and acquired a Booster power-up!,チェックポイントを通過すると、チェックポイントが活性化しランダムでアイテムを獲得します。,Получить случайный предмет при прохождении и активации контрольной точки.,Erhalte ein zufälliges Item wenn du durch einen Checkpoint gehst.,Obtén un objeto aleatorio especial al pasar y activar un punto de control.,Reçois un objet spécial aléatoire en passant et en activant le point de contrôle.,Hai recuperato un oggetto speciale passando e attivando un checkpoint.,Ganhe um item especial aleatório passando e ativando um ponto de verificação.,Bir kontrol noktasından geçerek ve onu etkinleştirerek rastgele bir nesne edinin,很棒！你刚通过了检查点，并获得了一个加速器！,通過並激活檢查點，得到隨機特殊物品。,รับสิ่งของพิเศษแบบสุ่มโดยการผ่านและเปิดใช้จุด\nตรวจ.
Tutorial_1_7_1,부스터는 일정시간동안 속도를 향상시킵니다.\n하단에 아이템 버튼을 눌러\n아이템을 사용하세요.,Boosters increase speed for a limited time. Tap the power-up button in the bottom to use.,ブースターは一定時間の間、速度を上昇させます。\n下のアイテムボタンを押して\nアイテムを使用してください。,Увеличивает скорость на некоторое время. Нажать для использования.,Booster beschleunigen dich für kurze Zeit. Tippe auf den unteren Item-Knopf um ihn zu nutzen.,Los boosters te dan un corto impulso. Toca el botón de items para\nnusarlos.,Les boosts t'accélèrent un certain temps. Tappe sur le bouton objet en-bas pour l'utiliser.,I booster aumentano la velocità per un tempo limitato. Tocca il bottone dell'oggetto inferiore per utilizzarlo.,Boosters permitem acelerar por um tempo limitado. Toque no botão de item inferior para usar.,Güçlendiriciler sınırlı bir süre için hızı artırır. Kullanmak için alttaki nesne düğmesine dokunun.,加速器会加速一段时间。点击底部物品按钮使用。,加速器會加速一段時間。點擊底部物品按鈕\n使用。,ตัวเร่งจะช่วยเพิ่มความเร็วในเวลาที่จำกัด แตะที่ปุ่มสิ่งของด้านล่าง เพื่อใช้งาน.
Tutorial_1_8_0,좌측버튼을 눌러 좌측으로 점프해 벽을타고 내려갑니다.,Tap the left side of the screen to jump left and slide down the wall.,左ボタンを押して左へジャンプすると壁をつたいおります。,Нажми Влево чтобы двигать влево и скользить вниз по стене.,Tippe links um nach links zu springen und die Mauer entlang zu rutschen.,Toca a la izquierda para saltar en esa dirección y deslizarte por el muro.,Tappe à gauche et glisse le long du mur.,Tocca a sinistra per saltare a sinistra e scivolare giù dal muro.,Toque na esquerda para saltar para a esquerda e deslizar pela parede abaixo.,Sola atlamak ve duvardan aşağı kaymak için sola dokunun.,点击左方，向左跳，并顺着墙滑下来。,點擊左方，向左跳，並順著牆滑下來。,แตะด้านซ้ายเพื่อกระโดดไปทางซ้ายและไถลลงกำแพง.
Tutorial_1_9_0,우측방향버튼을 눌러 우측방향으로 점프합니다.,Now&#44; tap right to jump right.,右方向ボタンを押して右へジャンプします。,Нажми Вправо чтобы прыгнуть вправо,Tippe rechts um nach rechts zu springen.,Toca a la derecha para saltar.,Tappe à droite pour sauter sur la droite.,Tocca a destra per saltare a destra.,Toque na direita para saltar para a direita.,Sağa atlamak için sağa dokunun.,现在&#44;点击右方，向右跳。,點擊右方，向右跳。,แตะด้านขวาเพื่อกระโดดไปทางขวา.
Tutorial_1_10_0,시작포인트를 통과하면 1바퀴입니다. 시작포인트 통과시에도 아이템을 받습니다.,Congrats! You’ve just finished your first lap! You’ve also acquired a power-up going through the starting point.,スタートポイントを通過すると1周です。スタートポイント通過時もアイテムを獲得できます。,Остался один круг до точки старта. Специальный предмет приобретается после прохождения точки старта.,Eine Runde ist vorbei wenn du durch den Start gehst. Du erhälst auch ein Item.,Ha transcurrido una vuelta desde el inicio. Se adquieren items especiales al pasar el punto de inicio.,1 tour est complété en traversant le point de départ. Tu recevras aussi un objet spécial.,Hai appena finito il primo giro! Puoi ottenere un oggetto speciali se ci passi nuovamente.,É 1 volta ao passar no ponto de partida. Também ganha um artigo especial ao passar no ponto de partida.,Başlama noktasını geçeli 1 tur oldu. Başlama noktası geçildiğinde özel nesne edinilmektedir.,通过开始点后的第一圈。通过开始点时也会获得特殊物品。,通過開始點後的第一圈。通過開始點時也會獲得特殊物品。,จะนับเป็น 1 รอบเมื่อผ่านจุดเริ่มต้น และจะได้รับสิ่งของพิเศษเมื่อผ่านจุดเริ่มต้น.
Tutorial_1_10_1,얼음폭탄은 주변 플레이어를 얼려버립니다. 적절한 시점에 사용하세요.,The ice bomb freezes opponents in the vicinity. Use it at the opportune moment.,アイスボムは周りのプレイヤーを凍らせます。適切な地点で使用してください。,Ледяные бомбы замораживают рядом стоящих игроков. Используй их впри удобном моменте.,Eisbomben frieren nahe Spieler ein. Nutze sie zum richtigen Zeitpunkt.,Las bombas de hielo congelan a los oponentes. Úsalas sabiamente.,Les bombes à glace gèlent tes adversaires proches. Utilise-les au bon moment.,Le bombe di giacchio congelano i giocatori circostanti. Uutilizzale nel momento giusto.,Bombas de gelo congelam os jogadores ao redor. Use no momento mais oportuno.,Buz bombaları çevredeki oyuncuları dondurur. Bunları uygun bir anda kullanın.,寒冰炸弹会冻结周围的玩家。在合适时机使用它吧。,寒冰炸彈會凍結周圍的玩家。在合適時機使用它吧。,ระเบิดน้ำแข็งจะแช่แข็งพวกผู้เล่นรอบข้าง ใช้มันในเวลาที่เหมาะสม.
Tutorial_1_10_2,아이템을 소진하지 않으면 다음 포인트에서 아이템을 얻을 수 없습니다.,If the current power-up is not used&#44; no new power-up will be acquired at the next checkpoint.,アイテムを使用しないと、次のポイントでアイテムを獲得することができません。,Если специальный предмет не использован нельзя приобрести новый предмет на контрольной точке.,Wenn du deine Items nicht nutzt bekommst du beim nächsten Checkpoint kein neues.,Si el item especial no se utiliza este no se reemplazará en el punto de control siguiente.,Si tu n'utilises pas tes objets tu n'en recevras pas en passant le point de contrôle.,Se l'oggetto speciale non viene utilizzato non ne otterrai nessun altro al prossimo checkpoint.,Se o item especial não for usado não ganhará um novo item especial no próximo ponto de verificação.,Özel nesne kullanılmazsa bir sonraki kontrol noktasında yeni bir özel nesne edinilmeyecektir.,如果未使用特殊物品，在下一个检查点不会获得新的特殊物品。,如果未使用特殊物品，在下一個檢查點不會獲得新的特殊物品。,หากสิ่งของพิเศษไม่ถูกใช้งาน คุณจะไม่ได้รับสิ่งของพิเศษใหม่ในจุดตรวจถัดไป.
Tutorial_1_10_3,이제 직접 남은 2바퀴를 뛰어보세요. 경기 제한시간은 60초입니다.,Now&#44; finish the remaining 2 laps! You have 60 seconds to complete the race.,それでは残りの2周を走ってみましょう。競技の制限時間は60秒です。,Заверши оставшиеся 2 круга. Осталось 60 секунд до конца гонки.,Beende die 2 verbleibenden Runden. Du hast 60 Sekunden um das Rennen zu beenden.,Termina las dos vueltas restantes. Te quedan 60 segundos.,Complète les 2 derniers tours. Tu as 60 secondes.,Finisci i due giri rimanenti. Hai 60 secondi per completare la corsa.,Termine as duas voltas restantes. Você tem 60 segundos para completar a corrida.,Kalan 2 turu bitirin. Yarışı tamamlamak için 60 saniyeniz var.,完成剩余的2圈。你还有60秒来完成比赛。,完成剩餘的2圈。你還有60秒來完成比賽。,ทำอีก 2 รอบที่เหลือให้จบ คุณมีเวลา 60 วินาทีเพื่อจบการแข่งขัน.
Tutorial_1_11_0,1등을 하면 참가비의 3배를 상금으로 받습니다. 2등은 2배 3등은 1배를 받습니다.,1st place finish gets you 3x&#44; 2nd gets 2x and 3rd gets 1x of the entrance fee.,1位になると参加費の3倍の賞金を受け取ります。2位は2倍、3位は1倍受け取ることができます。,1 место получает 3х Вступительный взнос. 2 место получает 2х&#44; a 3 место получает 1х.,Der Erste kriegt 3x die Zulassungsgebühr als Belohnung. Der Zweite 2x. Der Dritte 1x.,El primero recibe 3x cuotas de admisión a cambio. El segundo 2x. La tercera 1x.,Le premier reçoit 3x les frais d'admission en récompense. Le deuxième 2x. Le troisième 1x.,Con primo posto ottieni 3 volte la ricompensa. Con il secondo posto 2 volte e con il terzo una volta sola.,O 1º lugar recebe 3x taxa de admissão para a prêmios. O 2º lugar recebe 2x. O 3º lugar recebe 1x.,1. olan ödül olarak 3x giriş ücreti kazanır. 2. olan 2x kazanır. 3. olan 1x kazanır.,第一名得到3倍的参赛费。第二名得到2倍。第三名得到 1 倍。,第一名得到3倍的參賽費。第二名得到2倍。第三名得到1倍。,อันดับที่ 1 จะได้รับรางวัลเป็นค่าเข้าร่วม 3 เท่า อันดับที่ 2 จะได้รับ 2 เท่า และอันดับที่ 3 จะได้รับ 1 เท่า.
Tutorial_1_11_1,또한 순위에 따라 금/은/동 배지를 획득합니다.\n배지를 다 모으면 행운의 찬스 룰렛을 돌릴 수 있는\n기회가 주어집니다.,Get a chance to spin Lucky Chance roulette with the collected Gold&#44; Silver and Bronze badges.,また、順位によって金 / 銀 / 銅のバッジを獲得できます。\nバッジをすべて集めると、ラッキーチャンスルーレットを回す\n機会が得られます。,Получи Золотую / Серебрянную / Бронзовую медаль в соответствии с классификацией. Получи возможность сыграть в Счастливую Рулетку.,Erhalte Gold- / Silber- / Bronze-Abzeichen je nach Rang. Mit allen gesammelten Abzeichen hast du die Chance das Glücksfall-Roulette zu drehen.,Obtén medallas de Oro / Plata / Bronce de auerdo a tu clasificación. Usa las medallas para ganar vueltas a la ruleta de la suerte.,Obtiens un badge Or / Argent / Bronze suivant ton rang. Tu auras une chance de tourner la roulette avec tous les badges obtenus.,Prova a girare la roulette della fortuna utilizzando le medaglie d'Oro/d'Argento/di Bronzo che hai ottenuto.,Ganhe crachás Ouro / Prata / Bronze conforme a classificação. Tenha a chance de girar a Roleta da Sorte com todos os crachás obtidos,Sıralamaya göre Altın / Gümüş / Bronz rozet kazanın. Toplanan tüm rozetlerle Şanslı Seçenek ruletini çevirme şansı edinin.,根据排名得到金／银／铜徽章。集齐所有徽章，得到转动幸运轮盘的机会。,根據排名得到金／銀／銅徽章。集齊所有徽章，得到轉動幸運輪盤的機會。,รับตราทอง / เงิน / ทองแดง ตามอันดับที่ได้\nรับโอกาสเข้าไปหมุนวงล้อโอกาสโชคดีด้วยตราที่เก็บสะสมมาทั้งหมด.
Tutorial_1_11_2,획득한 배지의 종류에 따라 행운의 찬스를 통해 얻을 수 있는 골드의 배율이 달라집니다.,Potential Gold earning amount changes with the acquired badge types.,獲得したバッジの種類によってラッキーチャンスで得られるGOLDの倍率が異なります。,Количество золота меняется в зависимости от медали Собери все медали и получи возможноть сыграть в Счастливую Рулетку.,Maximal erhaltbares Gold hängt von den erhaltenen Abzeichen ab. Sammle alle Abzeichen für eine Chance auf das Glücksfall-Roulette.,La cantidad de oro que se puede ganar varía de acuerdo al tipo de medalla. Obtén todas las medallas para poder girar la ruleta de la suerte.,Le taux de pièces d'or maximum change d'après les badges obtenus. Collecte tous les badges pour la roulette Essai Chanceux.,La proporzione d'oro raggiungibile varia in base alle medaglie ottenute. Raccogli tutte le medaglie per avere la possibilità di girare la roulette della fortuna.,A probabilidade de ganhar Ouro depende dos tipos de crachá obtidos. Obtenha todos os crachás para ter a chance de girar a Roleta da Sorte.,Elde edilebilecek Altın oranı toplanan rozet türlerine göre değişir. Şanslı Seçenek ruletini çevirme şansı için tüm rozetleri toplayın.,根据获得的徽章类型，可获得金币的几率会发生改变。集齐所有徽章，得到转动幸运轮盘的机会。,根據獲得的徽章類型，可獲得金幣的機率會發生改變。集齊所有徽章，得到轉動幸運輪盤的機會。,อัตราการได้รับทองจะเปลี่ยนแปลงโดยขึ้นกับชนิดของตราที่ได้รับ\nเก็บสะสมตราทั้งหมดเพื่อรับโอกาสเข้าไปหมุนวงล้อโอกาสโชคดี.
Tutorial_1_11_3,이제 로비로 돌아가 실제 경기에 참가하세요.,You’ve completed the tutorial. Go back to the lobby and participate in the real race!,ロビーに戻り実際の競技に参加してみましょう。,Теперь возвращайся в лобби и прими участие в настоящей гонке.,Jetzt kehre in die Lobby zurück und nimm am echten Rennen teil.,Ahora vuelve al lobby y únete a una carrera de verdad.,Maintenant retourne au lobby et participe à une vraie course.,Adesso torna alla lobby e partecipa alla vera corsa.,Agora volte para o lobby e participe da corrida a sério.,Şimdi lobiye dönün ve gerçek bir yarışa katılın.,你完成了新手教程。回到大厅，参加真正的比赛吧。,現在，回到大廳，參加真正的比賽吧。,ตอนนี้ กลับไปที่ล็อบบี้และเข้าร่วมการแข่งขันจริงได้เลย.
Tutorial_2_0_0,캐릭터 컨디션에대해 설명 드리겠습니다.,Let me explain to you about character conditions.,キャラクターコンディションについて説明します。,Давайте я расскажу вам о состояниях героя.,Lass mich dir die Charakterzustände erklären.,Déjame explicarte sobre las condiciones del personaje.,Permettez-moi de vous expliquer les conditions du personnage.,Fammi spiegarti le condizioni relative ai personaggi.,Permita que lhe explique acerca das condições das personagens.,Sana karakter koşullarından bahsedeyim.,请容我解释一下各角色的状态。,請容我解釋一下各角色的狀態。,ให้ฉันอธิบายให้คุณฟังเกี่ยวกับสภาพของตัวละคร.
Tutorial_2_1_0,캐릭터 버튼을 눌러 캐릭터 관리창을 여세요.,Tap on the character button to manage character options.,キャラクターボタンをクリックしてキャラクター管理画面を開いてください,Нажмите на кнопку с героем&#44; чтобы управлять его опциями.,Klicke auf den Charakter-Button um die Optionen zu verwalten.,Toca el botón del personaje para contolar sus opciones.,Appuyez sur le bouton de personnage pour gérer ses options.,Sfiora il tasto del personaggio per gestire le sue opzioni.,Toque o botão da personagem para gerenciar suas opções.,Seçeneklerini yönetmek için karakter butonuna dokun.,点击角色按钮管理角色选项。,點擊角色按鈕管理角色選項。,แตะที่ปุ่มตัวละครเพื่อจัดการตัวเลือก.
Tutorial_2_2_0,한 캐릭터로 연속해서 경기에 참가할 경우 캐릭터의 컨디션은 맑음&#44; 구름&#44; 비&#44; 번개 순으로 저하됩니다.,Continuous use of a character in races will degrade its condition in the following order: clear&#44; cloudy&#44; rain and lightning.,ひとつのキャラクターで続けて競技に参加すると、キャラクターのコンディションは晴れ&#44; 曇り&#44; 雨&#44; 雷の順に低下します,Продолжительное использование героя в заездах будет понижать его состояние в следующем порядке: ясно&#44; пасмурно&#44; дождь и гроза.,Durchgehendes Nutzens eines Charakters wird seinen Zustand in der folgenden Reihenfolge verschlechtern: Heiter&#44; Wolke&#44; Regen und Blitze.,El uso continuo de un personaje en carreras degradará su condición en el siguiente orden: despejado&#44; nube&#44; lluvia y trueno.,L'utilisation continue d'un personnage dans les courses va dégrader son état dans l'ordre suivant: clair&#44; nuage&#44; pluie et foudre.,L'uso continuo di un personaggio in corse deteriorerà le sue condizioni nel seguente ordine: cielo sereno&#44; nuvole&#44; pioggia e fulmine.,O uso contínuo de uma personagem em corridas degradará sua condição pela ordem seguinte: claro&#44; núvens&#44; chuva e relâmpagos.,Karakterlerin yarışlarda sürekli olarak kullanılması karakterin durumunu şu sırada azaltacaktır: açık hava&#44; bulutlu&#44; yağmur ve yıldırım.,在比赛中连续使用某一角色将使其所处的环境状态按如下顺序退化：晴天、多云、雨天及闪电。,在比賽中連續使用某一角色將使其所處的環境狀態按如下順序退化：晴天、多雲、雨天及閃電。,การใช้งานตัวละครในการแข่งขันอย่างต่อเนื่องจะทำให้สภาพของมันลดลงไปตามลำดับดังนี้: แจ่มใส&#44; เมฆมาก&#44; ฝนตก และสายฟ้า.
Tutorial_2_2_1,컨디션 저하에 따라 아이템 사용이 하나씩 제한되니 가능하면 다양한 캐릭터를 사용해 경기에 참가하세요.,Have multiple characters available since an item will be disabled for use with each degraded condition.,コンディション低下によってアイテムの使用がひとつずつ制限されるため、できるだけ様々なキャラクターを使って競技に参加してください,Лучше иметь несколько героев&#44; т.к. с каждым понижением состояния предмет будет отключаться.,Es ist gut mehrere Charaktere zur Verfügung zu haben&#44; da pro verschlechtertem Zustand ein Item deaktiviert wird.,Ten disponibles múltiples personajes ya que un objeto será desactivado con cada degradación.,Ayez plusieurs personnages disponibles car une objet sera désactivée à chaque condition dégradée.,Tieni a disposizione multi personaggi perché in ogni condizione degratata verrà disabilitato un elemento.,Tenha várias personagens disponíveis uma vez que à medida que sua condição se agrava&#44; um item será desativado .,Elinizde birden fazla karakter bulundurun. Çünkü her bir azaltılma durumuyla bir item devre dışı olacaktır.,因在不同退化等级的环境中某个装备可能无法使用，请购买多个不同的角色。,因在不同退化等級的環境中某個裝備可能無法使用，請購買多個不同的角色。,มีตัวละครอยู่จำนวนมากมายเพราะว่าไม่สามารถใช้งานสิ่งของได้ 1 อย่างในแต่ละสภาพที่ลดลง.
Tutorial_2_2_2,사용하지 않는 캐릭터는 컨디션을 조금씩 회복하지만 가끔 컨디션이 매우 좋아지거나 매우 나빠질 수도 있습니다.,Characters that are not in use gradually recover their conditions&#44; but may get significantly better or worse on occasion.,使用しないキャラクターは少しずつコンディションを回復していきますが、たまにコンディションがとても良くなったりとても悪くなったりします,Неиспользуемые герои постепенно восстанавливают свои состояния&#44; но иногда состояния могут мгновенно улучшиться или ухудшиться.,Der Zustand ungenutzter Charaktere verbessert sich schrittweise&#44; kann aber gelegentlich merklich besser oder schlechter werden.,Los personajes sin usar recuperan gradualmente sus condiciones&#44; pero pueden mejorar o empeorar notablemente en ocasiones.,Les personnages inutilisés récupèrent progressivement leurs conditions&#44; mais ils peuvent s'améliorer ou s'aggraver de manière significative à l'occasion.,I personaggi inutilizzati recuperano gradualmente le loro condizioni&#44; ma a seconda delle circostanze esse possono migliorare o peggiorare.,Personagens não utilizadas recuperam gradualmente sua condição&#44; mas ocasionalmente&#44; tanto podem melhorar como piorar.,Kullanılmayan karakterler yavaş yavaş durumlarını iyileştirir ancak bazen önemli ölçüde daha iyi veya kötü bir hale gelebilirler.,不使用的角色会逐渐恢复状态，但也可能偶尔有大幅提高或变糟的情况。,不使用的角色會逐漸恢復狀態，但也可能偶爾有大幅提高或變糟的情況。,พวกตัวละครที่ไม่ถูกใช้งานจะค่อย ๆ ฟื้นฟูสภาพของพวกมัน แต่ก็อาจจะดีขึ้นหรือแย่ลงอย่างมากได้ตามแต่โอกาส.
Tutorial_2_2_3,처음 구매한 캐릭터는 최상의 컨디션 상태인 '별무리' 상태이며 이때는 경기 상금의 30%를 추가로 획득합니다.,Newly purchased characters will be in their best conditions&#44; which are represented with ’stars’.,最初に購入したキャラクターは最高にいいコンディションの「星座」状態で、競技賞金の30%を追加獲得できます,Только что купленные герои будут находится в их лучших состояниях. Они отмечаются 'звездами'.,Neu gekaufte Charaktere sind in ihrer besten Verfassung&#44; welche mit 'Sternen' dargestellt wird.,Los personajes recién comprados estarán en sus mejores condiciones&#44; que se representan con 'estrellas'.,Les personnages nouvellement achetés seront dans leurs meilleures conditions&#44; qui sont représentés avec 'stars'.,I personaggi appena acquistati saranno nelle loro migliori condizioni&#44; rappresentate con delle 'stelle'.,As personagens recém adquiridas estarão em suas melhores condições&#44; que são representados por 'estrelas'.,Yeni satın alınan karakterler en iyi durumda olacaklardır. Bu durum 'yıldızlar' ile gösterilir.,新购买的角色将保持在最佳的状态，以’星星'表示。,新購買的角色將保持在最佳的狀態，以’星星’表示。,พวกตัวละครที่ซื้อมาใหม่จะอยู่ในสภาพที่ดีที่สุดซึ่งถูกแสดงด้วย ‘ดวงดาว'.
Tutorial_2_2_4,컨디션 아이콘을 누르고 있으면 상세정보를 확인할 수 있습니다.,Touch the condition icon to see detailed info.,コンディションアイコンを押していると詳細を確認することができます。,Нажмите на иконку 'Состояния' для получения подробной информации.,Tippe auf das Zustands-Icon für detailliertere Informationen.,Toca el ícono de condición para ver detalles.,Appuyez sur l'icône de condition pour voir des informations detaillées.,Sfiora l'icona della condizione per visualizzare informazioni dettagliate.,Toque o ícone de condição para acessar informações detalhadas.,Detaylı bilgileri görmek için durum simgesine dokunun.,点击状态按钮了解详情。,點擊狀態按鈕了解詳情。,แตะที่ไอคอนสภาพเพื่อดูรายละเอียด.
Tutorial_2_3_0,캐릭터의 '착용아이템'에 대해 설명 드리겠습니다.,Let’s now go over the ‘equipped items’ on characters.,キャラクターの「着用アイテム」について説明します,Теперь давайте рассмотрим 'используемые предметы' на герое.,Sehen wir uns nun die ‘angelegten Items’ bei Charakteren an.,Vamos ahora con los 'objetos equipados' en los personajes.,Examinons maintenant les «éléments équipés» sur les personnages.,Adesso passiamo agli 'elementi di attrezzatura' dei personaggi.,Vamos agora ver os ‘itens de equipamento’ em personagens,Şimdi de karakterler üzerindeki ‘donatılan itemlere' göz atalım.,现在让我们看一下各个角色的’装备’。,現在讓我們看一下各個角色的’裝備’。,ตอนนี้ไปดูที่ 'สิ่งของที่ถูกติดตั้ง' ให้กับพวกตัวละครกันเลย.
Tutorial_2_4_0,캐릭터마다 기본으로 1개의 아이템을 착용하고 있으며 기본 아이템은 변경할 수 없습니다.,Each character has 1 item by default which cannot be changed for another item.,基本的にキャラクターごとに1つのアイテムを着用しており、基本アイテムは変更することができません,У каждого героя по умолчанию есть 1 предмет&#44; который нельзя заменить другим предметом.,Jeder Charakter hat einen Standard-Item&#44; der nicht durch andere Gegenstände ersetzt werden kann.,Cada personaje tiene 1 objeto por defecto que no puede ser cambiado por otro.,Chaque personnage possède 1 élément par défaut qui ne peut pas être modifié pour autre élément.,Ad ogni personaggio viene assegnato 1 elemento predefinito che non può essere cambiato.,Cada personagem possui 1 item padrão que não pode ser trocado por outro item.,Her bir karakter varsayılan olarak 1 iteme sahiptir ve bu item diğer bir item ile değiştirilemez.,各角色默认持有1件装备，该装备无法与其他装备交换。,各角色默認持有1件裝備，該裝備無法與其他裝備交換。,ตัวละครแต่ละตัวจะมีสิ่งของเริ่มต้นจำนวน 1 ชิ้นซึ่งไม่สามารถเปลี่ยนเป็นสิ่งของอื่น ๆ ได้.
Tutorial_2_4_1,아이템 아이콘을 누르면 상세정보를 확인할 수 있습니다.,Touch the item icon to see detailed info.,アイテムアイコンを押すと詳細を確認することができます。,Нажмите на иконку 'Предмет' для получения подробной информации.,Tippe auf das Ausrüstungs-Icon für detailliertere Informationen.,Presiona el ícono 'objetos' para ver detalles.,Appuyez sur l'icône des éléments pour voir des informations détaillées.,Sfiora l'icona dell'elemento per visualizzare informazioni dettagliate.,Toque o ícone de item para acessar informações detalhadas.,Detaylı bilgileri görmek için öğe simgesine dokunun.,点击装备按钮了解详情。,點擊裝備按鈕了解詳情。,แตะที่ไอคอนสิ่งของเพื่อดูรายละเอียด.
Tutorial_2_5_0,캐릭터마다 2개의 아이템을 추가로 착용할 수 있습니다. 아이템을 추가하기 위해서는 잠겨있는 아이템 슬롯을 풀어야합니다.,Each character can have 2 additional items. Unlock item slots to add the additional items.,キャラクターごとに2つのアイテムを追加で着用することができます。アイテムを追加するには、ロックされているアイテムスロットを解除しなければなりません,У каждого героя может быть 2 дополнительных предмета. Разблокируйте слоты&#44; чтобы добавить дополнительные предметы.,Jeder Charakter kann zwei weitere Items ausrüsten. Entsperre Positionen um weitere Items hinzuzufügen.,Cada personaje puede tener 2 objetos adicionales. Desbloquea espacios para añadirlos.,Chaque personnage peut possèder 2 éléments supplémentaires. Débloquez les emplacements d'objets pour ajouter les élements supplémentaires.,Ad ogni personaggio vengono assegnati 2 elementi supplementari. Sblocca gli slot degli elmenti per aggiungere gli elementi supplementari.,Cada personagem pode ter 2 itens adicionais. Desbloqueie locais de item para colocar os itens adicionais.,Her bir karakter 2 ilave iteme sahip olabilir. İlave itemler eklemek için item yuvalarının kilidini aç.,每个角色可另外添加2件装备。解锁装备槽添加装备。,每個角色可另外添加2件裝備。解鎖裝備槽添加裝備。,ตัวละครแต่ละตัวสามารถมีสิ่งของเพิ่มเติมได้อีก 2 ชิ้น ปลดล็อคช่องเก็บของเพื่อใส่สิ่งของเพิ่มเติม.
Tutorial_2_5_1,잠긴 슬롯을 누르면 슬롯을 풀기위한 미션을 볼 수 있습니다.,Touch the locked slots to see the missions to complete to unlock.,ロックされているスロットを押すと、解除するためのミッションを確認することができます。,Нажмите на недоступные слоты&#44; чтобы увидеть миссии&#44; необходимые для разблокировки.,Tippe auf die gesperrten Positionen um die Mission zum Entsperren zu sehen.,Toca los espacios bloqueados para ver las misiones a completar para desbloquear.,Appuyez sur les emplacements bloqués pour voir les missions à débloquer.,Sfiora gli slot bloccati per visualizzare le missioni che devi portare a termine per sbloccarli.,Toque os locais bloqueados para acessar informações sobre as missões que deve concluir para os desbloquear.,Kilidi açmak için tamamlanması gereken görevleri görmek isterseniz kilitli yuvalara dokunun.,点击锁定的槽，完成任务解锁。,點擊鎖定的槽，完成任務解鎖。,แตะที่ช่องเก็บของที่ถูกล็อคอยู่เพื่อดูภารกิจที่จะต้องทำเพื่อปลดล็อค.
Tutorial_2_6_0,잠금이 해제 된 빈 슬롯이 있는 경우 아이템 변경하기 버튼을 눌러 아이템을 변경할 수 있습니다.,Tap on ‘Change Items’ button to change items in the unlocked empty slots.,ロックが解除された空いたスロットがあれば、アイテム変更ボタンを押してアイテムを変更することができます,Нажмите на 'Изменить предметы'&#44; чтобы изменить предметы в доступных пустых слотах.,Tippe auf den ‘Item tauschen’ - Button um Gegenstände in den entsperrten leeren Positionen abzulegen.,Toca el botón 'cambiar objetos' para cambiar objetos en los espacios desbloqueados.,Appuyez sur le bouton 'Modifier les éléments' pour changer les éléments dans les emplacements vides déverrouillés.,Sfiora il tasto 'Cambia elementi' per cambiare gli elementi negli slot vuoti sbloccati.,Toque o botão 'Trocar itens' para alterar itens nos locais vazios desbloqueados.,Kilitli boş yuvalardaki itemleri değiştirmek için 'Itemleri Değiştir' butonuna dokunun.,点击'交换装备'按钮，解锁空槽以便交换装备。,點擊'交換裝備'按鈕，解鎖空槽以便交換裝備。,แตะที่ปุ่ม 'เปลี่ยนสิ่งของ' เพื่อเปลี่ยนสิ่งของในช่องเก็บของที่ถูกปลดล็อคแล้วและยังว่างอยู่.
Tutorial_2_7_0,슬롯머신을 돌려 아이템을 변경하세요.,Play the slots to change the character items.,スロットマシーンを回してアイテムを変更してください。,Запустите слот-машину&#44; чтобы изменить предметы героя.,Spiele am Spielautomaten um die ausgerüsteten Items zu ändern.,Juega con la máquina para cambiar los objetos del personaje.,Jouez les machines à sous pour changer les objets du personnage.,Gioca con slot per cambiare gli elementi attribuiti ai personaggi.,Jogue com a sorte para trocar os itens da personagem.,Karakter itemlerini değiştirmek için yuvaları oynayın.,玩老虎机交换获得该角色适用的装备。,玩老虎機交換獲得該角色適用的裝備。,เล่นเครื่องเล่นสล็อตแมชชีนเพื่อเปลี่ยนสิ่งของสำหรับตัวละคร.
Tutorial_2_8_0,착용아이템은 결정적인 순간에 경기의 흐름을 반전시킬지도 모릅니다. 이제 경기에 참가하세요.,Equipped items may help to overturn the flow of the game.,着用アイテムは競技の結果を左右します。それでは早速参加してみましょう。,Используемые предметы могут помочь изменить ход игры.,Ausgerüstete Items können dabei helfen den Spielverlauf zu verändern.,Los objetos equipados pueden ayudar a voltear el curso del juego.,Les objets équipés peuvent aider à renverser le flux du jeu.,Gli elementi di attrezzatura possono aiutare a cambiare l'andamento del gioco.,Itens de equipamento podem favorecê-lo alterando o fluxo do jogo.,Donatılan itemler oyunun akışının tersine çevirmeye yardımcı olabilir.,装备可助您颠覆游戏进程。,裝備可助您顛覆遊戲進程。,พวกสิ่งของที่ถูกติดตั้งอาจจะช่วยพลิกสถานการณ์ของเกมได้.
Matching...,참가자 모집중...,Waiting for players…,参加者募集中…,Сбор игроков...,Suche Spieler...,Recolectando jugadores…,Recherche de joueurs...,Caricamento Giocatori in corso…,Reunindo jogadores...,Oyuncuları toplanıyor...,参加者集合中...,參加者集合中...,กำลังรวบรวมผู้เล่น...
NetworkErrorText,잠시 후 다시 시도해주세요.,Please try again later.,しばらくしてから再度お試しください。,Пожалуйста попробуй позже.,Bitte versuche es später wieder.,Por favor intente más tarde.,Veuillez réessayer plus tard.,Riprova più tardi.,Tente novamente mais tarde por favor.,Lütfen tekrar deneyin.,请稍后重试。,請稍後重試。,กรุณาลองใหม่อีกครั้ง.
LimitLvPopupText,Level이 기준 이하로 참가할 수 없습니다.\n경험을 더 쌓고 다시 오세요!,Your level is too low to play.\nPlease come back when you have enough!,レベルが基準より下回っているため参加できません。\n経験を積んでからまた来てください!,Твой уровень слишком низок чтобы играть.\nПожалуйста возвращайся когда будешь иметь достаточный!,Dein Level ist zu niedrig. Bitte komm wieder wenn du hoch genug bist!,¡Tu nivel es demasiado bajo para jugar.\nVuelve cuando tengas suficiente!,Votre niveau est trop bas pour jouer.\nRevenez quand il sera suffisant.,Il tuo Livello non è abbastanza per giocare. Riprova quando sei abbastanza avanti!,Seu nível é demasiado baixo para jogar.\nVolte quando seu nível for suficiente por favor!,Seviyeniz oynamak için yeterince yüksek değil.\nLütfen yeterli olduğunda geri gelin.,等级太低，无法参加。\n请积累经验后再来吧!,等級太低，無法參加。\n請積累經驗後再來吧!,เลเวลของคุณต่ำเกินไปที่จะเล่นได้\nกรุณากลับมาอีกครั้งเมื่อคุณมีเลเวลเพียงพอแล้ว!
NoGoldPopupText,골드가 부족합니다.,Not enough Gold.,GOLDが足りません。,Недостаточно Золота.,Nicht genug Gold.,Oro insuficiente.,Pas assez de pièces d'or.,Oro insufficiente.,Não tem Ouro suficiente.,Yeterli altın yok.,金币不足。,金幣不足。,ทองไม่เพียงพอ.
GoLobby,로비로 이동,Go to lobby,ロビーへ移動,Идти в лобби,Zurück zur Lobby,Ir al lobby,Aller au lobby,Vai alla lobby,Vá para o lobby,Girişe git.,去大厅,去大廳,ไปที่ล็อบบี้
ExitPopupText,게임을 종료하시겠습니까?,Quit this race?,ゲームを終了しますか？,Закончить этот заезд?,Dieses Rennen verlassen?,¿Abandonar esta carrera?,Quitter la course,Lasci la corsa?,Desistir dessa corrida?,Bu yarıştan ayrılmak mı istiyorsunuz?,退出本场比赛吗？,退出這場賽跑嗎?,ออกจากการแข่งขันนี้?
Guide_GoLobby,로비로 돌아갑니다.,Returning to lobby,ロビーへ戻ります。,Возвращение в лобби.,Gehe zur Lobby.,Regreso al lobby.,Retourner au lobby,Ritorna alla lobby.,Retornando ao lobby.,Girişe dön.,返回大厅,回到大廳。,กำลังกลับไปที่ล็อบบี้.
Player,플레이어,Player,プレイヤー,Игрок,Spieler,Jugador,Joueur,Giocatore,Jogador,Oynatıcı,玩家,玩家,ผู้เล่น
Loading,로딩...,Loading...,ローディング…,Загрузка...,Laden...,Cargando...,Chargement…,Caricamento in corso...,Carregando...,Yüklüyor...,加载中...,加載中...,กำลังโหลด...
AutoShieldInfo,적의 공격을\n자동으로 1회 방어함.,Defend enemy attack once.,敵の攻撃を\n自動で1回防。,Один раз защищает от атаки противника.,Ein Mal einen gegnerischen Angriff abwehren.,Defender el ataque enemigo una vez,Défend contre une seule attaque ennemie.,Difenditi dall'attacco del nemico.,Defende o ataque inimigo uma vez,Düşman saldırısına karşı bir kez savunma yap.,防御敌人攻击一次,防禦敵人攻擊一次,ป้องกันการโจมตีจากศัตรูหนึ่งครั้ง.
AutoShield,자동보호막,Auto Shield,自動バリア,Автощит,Selbst-Schild,Escudo automático,Bouclier Automatique,Scudo automatico,Escudo Automático,Otomatik Kalkan,自动护盾,自動護盾,โล่อัตโนมัติ
Free,무료,Free,無料,Бесплатно,Gratis,Gratis,Gratuit,Gratis,Gratis,Ücretsiz,免费,免費,ฟรี
GetOffer,Get Offer,Get Offer,Get Offer,Предложение,Angebot erhalten,Obtener la oferta,Obtenir une offre,Accetta l'offerta,Obter Oferta,Teklif Al,得到赠品,得到贈品,รับข้อเสนอ
GetNow,지금받기,Get Now,受け取る,Получить,Erhalten,Obtener,Obtenir,Ottieni,Obter,Almak,领取,領取,ได้รับ
CouponInputText,쿠폰 번호를 입력하세요.,Enter coupon code.,クーポン番号を入力してください。,Ввведи код купона.,Coupon-Code eingeben.,Ingresar código de cupón.,Entrer le code du coupon.,Inserisci il codice del coupon.,Digite o código do cupom.,Kupon kodunu girin.,输入优惠券代码。,輸入優惠券代碼。,กรอกรหัสคูปอง.
CouponResultSuccess,쿠폰이 등록되었습니다.,Coupon has been applied.,クーポンが登録されました。ポストを確認してください。,Купон активирован. Проверьте входящие письма.,Coupon angewendet. Posteingang prüfen.,Se ha aplicado el cupoón. Revisa tu bandeja de entrada.,Coupon utilisé. Vérifie la boîte de réception.,Il codice è stato applicato. Controlla la tua casella email.,O cupom foi aplicado. Verifique a caixa de entrada.,Kupon uygulandı. Gelen Kutunuza göz atın.,已使用优惠券，请检查邮箱。,已使用優惠券，請檢查郵箱。,ใช้งานคูปองแล้ว ตรวจสอบกล่องจดหมาย.
CouponResultFail,올바르지 않은 쿠폰 코드입니다.,Invalid coupon code.,クーポン番号に誤りがあります。,Недействительный код купона.,Coupon-Code ungültig.,Código de cupón inválido.,Code non valide.,Codice del coupon non valido.,Código de cupom inválido.,Geçersiz kupon kodu.,无效的优惠券代码。,無效的優惠券代碼。,รหัสคูปองไม่ถูกต้อง.
CouponResultExist,이미 사용한 쿠폰입니다.,This coupon code is already used.,使用済みのクーポンです。,Код купона уже использован.,Coupon-Code bereits verwendet.,Este código de cupón ya ha sido usado.,Coupon déjà utilisé.,Codice del coupon già usato.,Código de cupom já utilizado.,Kupon kodu zaten kullanılmış bulunuyor.,优惠券代码已被使用。,優惠券代碼已被使用。,รหัสคูปองได้ถูกใช้ไปแล้ว.
CouponResultLimit,쿠폰을 모두 사용하였습니다.,Used all coupons.,クーポンをすべて使用しました。,Все доступные купоны использованы.,Alle verfügbaren Coupons verwendet.,Se han utilizado todos los cupones disponibles.,Tous les coupons disponibles utilisés.,Tutti i coupon disponibili sono stati usati.,Todos os cupons disponíveis já utilizados.,Mevcut tüm kuponlar kullanılmış bulunuyor.,已使用了所有可使用的优惠券。,已使用了所有可使用的優惠券。,คูปองที่มีอยู่ทั้งหมดถูกใช้ไปแล้ว.
CouponResultExpired,만료된 쿠폰입니다.,This coupon is expired.,使用期限の切れたクーポンです。,Данный купон истёк.,Dieses Coupon ist abgelaufen.,Este cupón ha vencido.,Ce coupon a expiré.,Questo coupon è scaduto.,Este cupom está expirado.,Bu kuponun kullanım süresi doldu.,优惠券已过期。,優惠券已過期。,คูปองนี้หมดอายุแล้ว.
Mailbox,우편함,Mailbox,ポスト,Почтовый ящик,Mailbox,Buzón de correo,Messagerie,Posta in arrivo,Caixa de Correio,Posta Kutusu.,邮箱,郵箱,กล่องจดหมาย
MailboxCopyInfo,복사완료. 필요한 곳에 붙여넣기 하세요.,Mailbox info copy complete. Paste where needed.,コピー完了。必要時に張り付けしてください。,Копирование завершено.,Mailbox-Infos kopiert. Wo notwendig einfügen.,Copia completada. Pegar donde sea necesario.,Infos messagerie copiées. Coller à volonté.,Copia compilata. Incollare dove necessario.,Concluída a cópia. Colar onde necessário.,Kopyalanması tamamlandı. İhtiyaç duyulan yere yapıştırın.,邮箱信息复制完成。请粘贴在你需要的地方。,郵箱信息複製完成。請粘貼在你需要的地方。,คัดลอกข้อมูลกล่องจดหมายเสร็จแล้ว นำไปวางในที่ ๆ ต้องการ.
CopyMailboxAddress,내 우편함 주소 복사,Copy Mailbox address,ポストのアドレスコピー,Скопировать адрес,Adresse kopieren,Copiari dirección,Copier adresse,Copiare indirizzo,Copie endereço,Adresini kopyala,复制邮箱地址,複製郵箱地址,คัดลอกที่อยู่
MailboxGoldItemInfo,골드,Gold,GOLDが足りません。,Золото,Gold,Oro,Pièces d'or,Oro,Ouro,Altın,金币,金幣,ทอง
MailboxItemReceive,받기,Claim,受け取る,Получить,Erhalten,Obtener,Obtenir,Riscatta,Obter,Almak,领取,領取,ได้รับ
MailboxConnectionFail,우편함 연결 실패.,Mailbox connection failed.,ポスト接続失敗,Не удалось подключиться к почтовому ящику.,Mailbox-Verbindung gescheitert.,Ha fallado la conexión al buzón de correo.,Connexion messagerie échouée.,La connessione con la casella di posta è fallita.,Falhou ligação a Caixa de Correio.,Posta Kutusu bağlantısı başarısız oldu.,连接邮箱失败。,連接郵箱失敗。,การเชื่อมต่อกล่องจดหมายล้มเหลว.
MailboxEmpty,우편함이 비어 있습니다.,Mailbox is empty.,ポストが空っぽです。,Почтовый ящик пуст.,Mailbox ist leer.,El buzón de correo está vació.,Messagerie vide.,La posta in arrivo è vuota.,A Caixa de Correio está vazia.,Posta Kutusu boş.,邮箱是空的。,郵箱是空的。,กล่องจดหมายว่างเปล่า.
CountrySelectionError,국가를 선택하세요.,Select your country.,国家を選択してください。,Выберите страну.,Land auswählen.,Seleccionar país.,Choisir pays.,Seleziona il tuo paese.,Selecione o país.,Ülke seçin.,选择国家。,選擇國家。,เลือกประเทศ.
NicknameLengthError,닉네임을 6자 이상 입력해주세요.,Enter nickname with 6 or more characters.,ニックネームを6文字以上入力してください。,Введите имя (6 и более символов).,Spielernamen mit 6 oder mehr Zeichen eingeben.,Ingresa un apodo con seis o más caracteres.,Entrer un pseudo de plus de 6 caractères.,Inserisci il tuo nickname con almeno 6 caratteri.,Digite apelido com 6 ou mais caracteres.,6 veya daha fazla karakterli bir takma ad girin.,输入至少6个字符的昵称。,輸入至少6個字符的暱稱。,กรอกชื่อเล่นด้วยตัวอักษรจำนวน 6 ตัวขึ้นไป.
Gold,골드,Gold,GOLD,Золото,Gold,Oro,Pièces d'or,Oro,Ouro,Altın,金币,金幣,ทอง
GetBadge,배지 획득,Badge acquired,バッジ獲得,Значок получен,Abzeichen erhalten,¡Insignia adquirida!,Vous avez acquis un badge,Medaglia ottenuta,Emblema adquirido,Rozet kazanıldı!,获得徽章,獲得徽章,ได้รับตราแล้ว
Choose,선택,Select,選択,Выбрать,Auswählen,Seleccionar,Choisir,Seleziona,Selecionar,Seç,选择,選擇,เลือก
Download,다운로드,Download,ダウンロード,Скачать,Herunterladen,Descargar,Télécharger,Scarica,Baixar,İndir,下载,下載,ดาวน์โหลด
PrizeGold,상금,Prize,賞品,Приз,Preis,Premio,Prix,Premio,Prêmio,Ödül,奖励,獎勵,รางวัล
NewVersionDownloadInfo,새로운 버전을 다운로드 후 플레이하세요.,Download the updated version and play.,新バージョンをダウンロードして遊ぼう,Загрузите новую версию и играйте.,Lade die neue Version herunter und spiele.,Descarga la nueva versión y juega.,Télécharge la nouvelle version et joue.,Scarica la nuova versione e gioca.,Descarregar a nova versão e jogar.,Yeni sürümü indir ve oyna.,下载新版本并开始游戏。,下載新版本並開始遊戲。,ดาวน์โหลดเวอร์ชั่นใหม่และเล่น.
Honor,명예의전당,Hall of Fame,殿堂,зал славы,Hall of Fame,Salón de la Fama,Panthéon,Classifica,Salão da Fama,Şöhret Salonu,荣誉大厅,榮譽大廳,หอเกียรติยศ
NoExpirationDate,기간제한없음,No time limit,時間制限なし,Нет ограничения по времени,Kein Zeitlimit,Sin límite de tiempo,Pas de limite de temps,Nessun limite di tempo,Sem limite de tempo,Zaman sınırı yok,没有时间限制,沒有時間限制,ไม่จำกัดเวลา
CheckInternet,인터넷을 확인해주세요,Please check the Internet connection,インターネットの接続を確認してください,Пожалуйста&#44; проверьте интернет соединение,Bitte überprüfen Sie die Internetverbindung,Por favor chequee su conexión de internet.,Veuillez vérifier la connexion Internet,Controlla la connessione ad Internet,Verifique a ligação à Internet,Lütfen internet bağlantısını kontrol edin,请检查互联网连接,請檢查互聯網連接,กรุณาตรวจสอบการเชื่อมต่ออินเทอร์เน็ต
SlotLockPopup,해당 슬롯을\n1회 고정하겠습니까?,Lock the slot once?,このスロットを\n1回固定しますか？,Заблокировать слот?,Den Slot ein Mal festlegen?,¿Confirmar selección?,Verrouiller cet emplacement?,Bloccare lo slot una volta?,Bloquear o caça níqueis de uma vez?,Yuva bir kez kilitlensin mi?,确定锁定当前物品栏？,確定鎖定當前物品欄？,ล็อคช่องเก็บของ?
ChangeSkills,아이템변경,Change Items,アイテム変更,Изменить предметы,Items Ändern,Cambiar objetos,Changer d’Objet,Cambia elemento,Mudar itens,Itemleri Değiştir,更换技能,更換技能,เปลี่ยนสิ่งของ
SkillUnlockMission,잠금 해제 미션,Missions to unlock,ロック解除ミッション,Доступные миссии,Missionen zum Freischalten,Misiones para desbloquear,Mission à débloquer,Mission da sbloccare,Missões para desbloquear,Kilidi açılacak görevler,待解锁的任务,待解鎖的任務,ภารกิจที่จะปลดล็อค
SkillUnlockMission_0_0,연습경기장 15회 이상 참가하기,Race 15 times in Practice Field,練習場に15回以上参加する,Выполните 15 заездов в Поле тренировок,15 Rennen im Übungsfeld,Corre 15 veces en el Campo de práctica,Faire 15 courses sur Terrain d’Exercice,Percorri il campo di allenamento 15 volte,Corra 15 vezes no Campo de Treinamento,Pratik Yapma Alanında 15 kez yarış,在练习场中进行15场比赛,在練習場中進行15場比賽,แข่งขัน 15 ครั้งในสนามฝึกซ้อม
SkillUnlockMission_0_1,배지 10개 획득하기,Acquire 10 badges,バッジを10個獲得する,Получите 10 значков,Erhalte 10 Abzeichen,Consigue 10 insignias,Recevoir 10 badges,Acquista 10 medaglie,Adquira 10 crachás,10 rozet kazan,获得10枚徽章,獲得10枚徽章,ได้รับตรา 10 อัน
SkillUnlockMission_1_0,경기 25회 참가하기,Race 25 total times,競技に25回参加する,Выполните 25 заездов,Nimm an 25 Rennen teil,Corre 25 veces en total,Faire 25 courses au total,Partecipa in corse 25 volte,Corra 25 vezes no total,Toplam 25 kez yarış,参加25场比赛,參加25場比賽,แข่งขันรวมทั้งหมด 25 ครั้ง
SkillUnlockMission_1_1,연속해서 5회 순위권으로 들어오기,Finish top 3 for 5 consecutive times,5回連続で順位に入る,Войдите в тройку лидеров 5 раз подряд,Komme 5 Mal nacheinander in die Top 3,Termina en el top 3 en 5 carreras consecutivas,Finir dans les 3 premiers 5 fois d’affilée,Arriva fra i primi 3 per 5 volte consecutive,Termine no top 3 por 5 vezes consecutivas,Art arda 5 kez ilk 3 içerisinde bitir,连续5次比赛排名前3,連續5次比賽排名前3,จบ 3 อันดับแรกจำนวน 5 ครั้งติดต่อกัน
SkillUnlockMission_2_0,없음,None,なし,Нет,Keine,Ninguno,Aucun,Nessuno,Nenhum,Hiçbiri,无,無,ไม่มี
SkillUnlockMission_2_1,얼음폭탄으로 5명 얼리기,Ice bomb 5 players,アイスボムで5人凍らせる,Используйте ледяную бомбу на 5 игроках,Eisbombe auf 5 Spieler,Bomba de hielo 5 jugadores,Geler 5 joueurs,Bomba di ghiaccio - 5 giocatori,Bomba de gelo em 5 jogadores,5 oyuncuya buz bombası at,使用寒冰炸弹冰冻5位玩家,使用寒冰炸彈冰凍5位玩家,ระเบิดน้ำแข็งใส่ผู้เล่น 5 คน
SkillUnlockMission_4_0,상금으로 누적 2&#44;500골드 받기,Collect 2&#44;500 Gold reward,賞金で累積2&#44;500GOLD受け取る,Соберите 2.500 Золота в качестве награды,Sammle 2.500 Gold an Belohnungen,Recoge 2.500 de oro,Gagner 2.500 Pièces d’Or,Raccogli 2.500 di oro come ricompensa,Recolha 2.500 prêmios de Ouro,2&#44;500 Altın ödülü topla,从比赛中获得2&#44;500金币,從比賽中獲得2&#44;500金幣,เก็บสะสมรางวัลเป็นทอง 2&#44;500 หน่วย
SkillUnlockMission_4_1,연속해서 3번 1위로 들어오기,Finish 1st for 3 consecutive times,3回連続で1位になる,Финишируйте первым 3 раза подряд,Werde 3 Mal hintereinander 1.,Termina el 1º en 3 carreras consecutivas,Finir 1er 3 fois d’affilée,Arriva per 1o per 3 volte consecutive,Termine 1ª por 3 vezes consecutivas,Art arda 3 kez 1. olarak bitir,连续3次比赛排名第1,連續3次比賽排名第1,จบอันดับที่ 1 จำนวน 3 ครั้งติดต่อกัน
SkillUnlockMission_6_0,동영상 광고 10회 시청하기,Watch video ads 10 times,動画広告を10回視聴す,Посмотрите рекламу 10 раз,Schau dir 10 Werbevideos an,Mira el anuncio 10 veces,Regarder 10 vidéos de publicités,Guarda le pubblicità 10 volte,Assista a anúncios em vídeo 10 vezes,Reklam videolarını 10 kez izle,观看视频广告10次,觀看視頻廣告10次,ชมวิดีโอโฆษณา 10 ครั้ง
SkillUnlockMission_6_1,미사일로 10명 맞추기,Missile strike 10 players,ミサイルで10人攻撃する,Ракетный удар по 10 игрокам,Raketenangriff auf 10 Spieler,Ataque con misiles 10 jugadores,Toucher 10 joueurs avec des missiles,I missili colpiscono 10 giocatori,Ataque de Míssil em 10 jogadores,10 oyuncuya füze saldırısı yap,使用导弹攻击10位玩家,使用導彈攻擊10位玩家,ยิงจรวดมิสไซล์ใส่ผู้เล่น 10 คน
SkillUnlockMission_7_0,동배지 10개 획득하기,Acquire 10 bronze badges,銅バッジを10個獲得する,Получите 10 бронзовых значков,Erhalte 10 Bronze-Abzeichen,Consigue 10 medallas de bronce,Recevoir 10 badges en bronze,Acquista 10 medaglie di bronzo,Adquira 10 crachás de bronze,10 bronz rozet kazan,获得10枚青铜徽章,獲得10枚青銅徽章,ได้รับตราทองแดง 10 อัน
SkillUnlockMission_7_1,하늘도시 30초 안에 들어오기,Finish Sky City within 30 seconds,スカイシティーに30秒以内に入,Финишируйте в Небесном Городе за 30 сек.,Beende Himmelsstadt in 30 Sekunden,Termina Ciudad del Cielo en 30 segundos,Finir Cité du Ciel en 30 secondes,Completa Città celeste entro 30 secondi,Concluir Cidade do Céu em de 30 segundos,Gök Şehri'ni 30 saniyede bitir,在30秒内完成天空之城关卡,在30秒內完成天空之城關卡,จบเมืองท้องฟ้าภายใน 30 วินาที
SkillUnlockMission_8_0,하늘도시 30회 참가하기,Race 30 times in Sky City,スカイシティーに30回参加す,Выполните 30 заездов в Небесном Городе,Mach 30 Rennen in Himmelsstadt,Corre 30 veces en Ciudad del Cielo,Faire 30 courses dans Cité du Ciel,Completa 30 corse in Città Celeste,Corra 30 vezes na Cidade do Céu,Gök Şehri'nde 30 kez yarış,在天空之城关卡比赛30次,在天空之城關卡比賽30次,แข่งขัน 30 ครั้งในเมืองท้องฟ้า
SkillUnlockMission_8_1,배지 25개 획득하기,Acquire 25 badges,バッジを25個獲得する,Получите 25 значков,Erhalte 25 Abzeichen,Consigue 25 insignias,Recevoir 25 badges,Acquista 25 medaglie,Adquira 25 crachás,25 rozet kazan,获得25枚徽章,獲得25枚徽章,ได้รับตรา 25 อัน
SkillUnlockMission_3_0,경기 100회 참가하기,Race 100 total times,競技に100回参加する,Выполните 100 заездов,Nimm an 100 Rennen teil,Corre 100 veces en total,Faire 100 courses au total,Partecipa in corse 100 volte,Corra 100 vezes no total,Toplam 100 kez yarış,参加100场比赛,參加100場比賽,แข่งขันรวมทั้งหมด 100 ครั้ง
SkillUnlockMission_3_1,연속해서 7회 순위권으로 들어오기,Finish top 3 for 7 consecutive times,7回連続で順位に入る,Войдите в тройку лидеров 7 раз подряд,Komme 7 Mal nacheinander in die Top 3,Termina en el top 3 en 7 carreras consecutivas,Finir dans les 3 premiers 7 fois d’affilée,Arriva fra i primi 3 per 7 volte consecutive,Terminar no top 3 por 7 vezes consecutivas,Art arda 7 kez ilk 3 içerisinde bitir,连续7次比赛排名前3,連續7次比賽排名前3,จบ 3 อันดับแรกจำนวน 7 ครั้งติดต่อกัน
SkillUnlockMission_18_0,Dr.Zone 캐릭터 수집하기,Acquire Dr. Zone,Dr.Zoneキャラクターを集め,Получите Доктора Зоуна,Erhalte Dr. Zone,Consigue a Dr. Zone,Débloquer Dr. Zone,Acquista Dott. Zona,Adquira Dr. Zone,Dr. Zone'ı Al,获得角色 Zone博士,獲得角色 Zone博士,ได้รับ ดร.โซน
SkillUnlockMission_18_1,얼음폭탄으로 25명 얼리기,Ice bomb 25 players,アイスボムで25人凍らせる,Используйте ледяную бомбу на 25 игроках,Eisbombe auf 25 Spieler,Bomba de hielo 25 jugadores,Geler 25 joueurs,Bomba di ghiaccio - 25 giocatori,Bomba de gelo em 25 jogadores,25 oyuncuya Buz Bombası at,使用寒冰炸弹冰冻25位玩家,使用寒冰炸彈冰凍25位玩家,ระเบิดน้ำแข็งใส่ผู้เล่น 25 คน
SkillUnlockMission_29_0,상금으로 누적 250&#44;000골드 받기,Collect 250&#44;000 Gold reward,賞金で累積250&#44;000GOLD受け取る,Соберите 250.000 Золота в качестве награды,Sammle 250.000 Gold an Belohnungen,Consigue 250.000 de oro,Gagner 250.000 Pièces d’Or,Raccogli 250.000 di oro come ricompensa,Recolher 250.000 Prêmios de Ouro,250&#44;000 Altın ödülü topla,从比赛中获得250&#44;000金币,從比賽中獲得250&#44;000金幣,เก็บสะสมรางวัลเป็นทอง 250&#44;000 หน่วย
SkillUnlockMission_29_1,연속해서 5번 1위로 들어오기,Finish 1st for 5 consecutive times,5回連続で1位になる,Финишируйте первым 5 раз подряд,Werde 5 Mal hintereinander 1.,Termina el 1º en 5 carreras consecutivas,Finir 1er 5 fois d’affilée,Arriva per 1o per 5 volte consecutive,Termine 1ª por 5 vezes consecutivas,Art arda 5 kez 1. olarak bitir,连续5次比赛排名第1,連續5次比賽排名第1,จบอันดับที่ 1 จำนวน 5 ครั้งติดต่อกัน
SkillUnlockMission_30_0,동영상 광고 30회 시청하기,Watch video ad 30 times,動画広告を30回視聴する,Посмотрите рекламу 30 раз,Schau dir 30 Werbevideos an,Mira el anuncio 30 veces,Regarder 30 vidéos de publicités,Guarda le pubblicità 30 volte,Assista ao vídeo 30 vezes,Reklam videosunu 30 kez izle,观看视频广告30次,觀看視頻廣告30次,ชมวิดีโอโฆษณา 30 ครั้ง
SkillUnlockMission_30_1,미사일로 30명 맞추기,Missile strike 30 players,ミサイルで30人攻撃する,Ракетный удар по 30 игрокам,Raketenangriff auf 30 Spieler,Ataque con misiles 30 jugadores,Toucher 30 joueurs avec des missiles,I missili colpiscono 30 giocatori,Ataque de Míssil em 30 jogadores,30 oyuncuya füze saldırısı yap,使用导弹攻击30位玩家,使用導彈攻擊30位玩家,ยิงจรวดมิสไซล์ใส่ผู้เล่น 30 คน
SkillUnlockMission_44_0,은배지 30개 획득하기,Acquire 30 silver badges,銀バッジを30個獲得する,Получите 25 серебряных значков,Erhalte 30 Silber-Abzeichen,Consigue 30 medallas de plata,Recevoir 30 badges en argent,Acquista 30 medaglie d'argento,Adquira 30 crachás de prata,30 gümüş rozet kazan,获得30枚银质徽章,獲得30枚銀質徽章,ได้รับตราเงิน 30 อัน
SkillUnlockMission_44_1,몬스터필드 40초 안에 들어오기,Finish Monster Field within 40 seconds,モンスターフィールドに40秒以内に入る,Финишируйте в Поле Монстров за 40 сек.,Beende Monsterfeld in 40 Sekunden,Termina el Campo de los Monstruos en 40 segundos,Finir Champs de Monstres en 40 secondes,Completa il campo di mostri entro 40 secondi,Termine o campo do monstro em 40 segundos,Canavar Arazisi'ni 40 saniyede bitir,在40秒内完成怪物原野关卡,在40秒內完成怪物原野關卡,จบทุ่งสัตว์ประหลาดภายใน 40 วินาที
SkillUnlockMission_23_0,몬스터필드 30회 참가하기,Race 30 times in Monster Field,モンスターフィールドに30回参加する,Выполните 30 заездов в Поле Монстров,Mach 30 Rennen in Monsterfeld,Corre 30 veces en Campo de los Monstruos,Faire 30 courses dans Champs de Monstres,Percorri il campo di mostri 30 volte,Corra 30 vezes no Campo do Monstro,Canavar Arazisi'nde 30 kez yarış,在怪物原野关卡比赛30次,在怪物原野關卡比賽30次,แข่งขัน 30 ครั้งในทุ่งสัตว์ประหลาด
SkillUnlockMission_23_1,배지 50개 획득하기,Acquire 50 badges,バッジを50個獲得する,Получите 50 значков,Erhalte 50 Abzeichen,Consigue 50 insignias,Recevoir 50 badges,Acquista 50 medaglie,Adquira 50 crachás,50 rozet kazan,获得50枚徽章,獲得50枚徽章,ได้รับตรา 50 อัน
SkillUnlockMission_24_0,경기 200회 참가하기,Race 200 total times,競技に200回参加する,Выполните 200 заездов,Nimm an 200 Rennen teil,Corre 200 veces en total,Faire 200 courses au total,Partecipa in corse 200 volte,Corra 200 total de vezes,Toplam 200 kez yarış,参加200场比赛,參加200場比賽,แข่งขันรวมทั้งหมด 200 ครั้ง
SkillUnlockMission_24_1,연속해서 10회 순위권으로 들어오기,Finish top 3 for 10 consecutive times,10回連続で順位に入,Войдите в тройку лидеров 10 раз подряд,Komme 10 Mal nacheinander in die Top 3,Termina en el top 3 en 10 carreras consecutivas,Finir dans les 3 premiers 10 fois d’affilée,Arriva fra i primi 3 per 10 volte consecutive,Terminar no top 3 por 10 vezes consecutivas,Art arda 10 kez ilk 3 içerisinde bitir,连续10次比赛排名前3,連續10次比賽排名前3,จบ 3 อันดับแรกจำนวน 10 ครั้งติดต่อกัน
SkillUnlockMission_25_0,Moon Mon 캐릭터 수집하기,Acquire Moon Mon,Moon Monキャラクターを集める,Получите Луну Лун,Erhalte Moon Mon,Consigue a Moon Mon,Débloquer Moon Mon,Acquista Moon Mon,Adquirir Moon Mon,Moon Mon'u Al,获得角色Moon Mon,獲得角色Moon Mon,ได้รับมูนมอน
SkillUnlockMission_25_1,얼음폭탄으로 50명 얼리기,Ice Bomb 50 players,アイスボムで50人凍らせる,Используйте Ледяную бомбу на 50 игроках,Eisbombe auf 50 Spieler,Bomba de hielo 50 jugadores,Geler 50 joueurs,Bomba di ghiaccio -  50 giocatori,Bomba de gelo em 50 jogadores,50 oyuncuya Buz Bombası at,使用寒冰炸弹冰冻50位玩家,使用寒冰炸彈冰凍50位玩家,ระเบิดน้ำแข็งใส่ผู้เล่น 50 คน
SkillUnlockMission_31_0,상금으로 누적 5&#44;000&#44;000골드 받기,Collect 5&#44;000&#44;000 Gold reward,賞金で累積5&#44;000&#44;000GOLD受け取る,Соберите 5.000.000 Золота в качестве награды,Sammle 5.000.000 Gold an Belohnungen,Consigue 5.000.000 de oro,Gagner 5&#44;000&#44;000 de Pièces d’Or,Raccogli 5.000.000 di oro come ricompensa,Recolher 5.000.000 de recompensa de Ouro,5&#44;000&#44;000 Altın ödülü topla,从比赛中获得5&#44;000&#44;000金币,從比賽中獲得5&#44;000&#44;000金幣,เก็บสะสมรางวัลเป็นทอง 5&#44;000&#44;000 หน่วย
SkillUnlockMission_31_1,연속해서 7번 1위로 들어오기,Finish 1st for 7 consecutive times,7回連続で1位になる,Финишируйте первым 7 раз подряд,Werde 7 Mal hintereinander 1.,Termina el 1º 7 veces consecutivas,Finir 1er 7 fois d’affilée,Arriva per 1o per 7 volte consecutive,Termine 1ª por 7 vezes consecutivas,Art arda 7 kez 1. olarak bitir,连续7次比赛排名第1,連續7次比賽排名第1,จบอันดับที่ 1 จำนวน 7 ครั้งติดต่อกัน
SkillUnlockMission_54_0,동영상 광고 50회 시청하기,Watch video ad 50 times,動画広告を50回視聴する,Посмотрите рекламу 50 раз,Schau dir 50 Werbevideos an,Mira el anuncio 50 veces,Regarder 50 vidéos de publicités,Guarda le pubblicità 50 volte,Assista ao vídeo 50 vezes,Reklam videosunu 50 kez izle,观看视频广告50次,觀看視頻廣告50次,ชมวิดีโอโฆษณา 50 ครั้ง
SkillUnlockMission_54_1,미사일로 50명 맞추기,Missile strike 50 players,ミサイルで50人攻撃する,Ракетный удар по 50 игрокам,Raketenangriff auf 50 Spieler,Ataque con misiles 50 jugadores,Toucher 50 joueurs avec des missiles,I missili colpiscono 50 giocatori,Ataque de Missíl em 50 jogadores,50 oyuncuya füze saldırısı yap,使用导弹攻击50位玩家,使用導彈攻擊50位玩家,ยิงจรวดมิสไซล์ใส่ผู้เล่น 50 คน
SkillUnlockMission_32_0,금배지 30개 획득,Acquire 30 gold badges,金バッジを30個獲得す,Получите 50 золотых значков,Erhalte 30 Gold-Abzeichen,Consigue 30 medallas de oro,Recevoir 30 badges en or,Acquista 50 medaglie d'oro,Adquira 30 crachás de ouro,30 altın rozet kazan,获得30枚金质徽章,獲得30枚金質徽章,ได้รับตราทอง 30 อัน
SkillUnlockMission_32_1,52구역 45초 안에 들어오기,Finish Area 52 in 45 seconds,52区域に45秒以内に入る,Финишируйте в Зоне 52 за 45 сек.,Beende Area 52 in 45 Sekunden,Termina Área 52 en 45 segundos,Finir Zone 52 en 45 secondes,Completa l'Area 52 entro 45 secondi,Termine a Área 52 em 45 segundos,52. Bölgeyi 45 saniyede bitir,在45秒内完成52区关卡,在45秒內完成52區關卡,จบพื้นที่ 52 ภายใน 45 วินาที
SkillUnlockMission_49_0,52구역 30회 참가하기,Race 30 times in Area 52,52区域に30回参加する,Выполните 30 заездов в Зоне 52,Mach 30 Rennen in Area 45,Corre 30 veces en Área 52,Faire 30 courses dans Zone 52,Percorri l'Area 52 30 volte,Corra 30 vezes na Área 52,52. Bölgede 30 kez yarış,在52区关卡比赛30次,在52區關卡比賽30次,แข่งขัน 30 ครั้งในพื้นที่ 52
SkillUnlockMission_49_1,배지 100개 획득하기,Acquire 100 badges,バッジを100個獲得する,Получите 100 значков,Erhalte 100 Abzeichen,Consigue 100 monedas,Recevoir 100 badges,Acquista 100 medaglie,Adquira 100 crachás,100 rozet kazan,获得100枚徽章,獲得100枚徽章,ได้รับตรา 100 อัน
SkillUnlockMission_53_0,경기 300회 참가하기,Race 300 total times,競技に300回参加する,Выполните 300 заездов,Nimm an 300 Rennen teil,Corre 300 veces en total,Faire 300 courses au total,Partecipa in corse 300 volte,CorrA 300 total de vezes,Toplam 300 kez yarış,参加300场比赛,參加300場比賽,แข่งขันรวมทั้งหมด 300 ครั้ง
SkillUnlockMission_53_1,연속해서 15회 순위권에 들어오기,Finish top 3 for 15 consecutive times,15回連続で順位に入る,Войдите в тройку лидеров 15 раз подряд,Komm 15 Mal nacheinander in die Top 3,Termina en el top 3 15 veces consecutivas,Finir dans les 3 premiers 15 fois d’affilée,Arriva fra i primi 3 per 15 volte consecutive,Termine no top 3 por 15 vezes consecutivas,Art arda 15 kez ilk 3 içerisinde bitir,连续15次比赛排名前3,連續15次比賽排名前3,จบ 3 อันดับแรกจำนวน 15 ครั้งติดต่อกัน
SkillUnlockMission_15_0,Heart Man 캐릭터 수집하기,Acquire Heart Man,Heart Manキャラクターを集める,Получите Сердечного Человека,Erhalte Heart Man,Consigue a Heart Man,Débloquer Heart Man,Acquista Heart Man,Adquirir Heart Man,Heart Man'u Al,获得角色Heart Man,獲得角色Heart Man,ได้รับ ฮาร์ทแมน
SkillUnlockMission_15_1,얼음폭탄으로 100명 얼리기,Ice Bomb 100 players,アイスボムで100人凍らせる,Используйте Ледяную бомбу на 100 игроках,Eisbombe auf 100 Spieler,Bomba de hielo 100 jugadores,Geler 100 joueurs,Bomba di ghiaccio -  100 giocatori,Bomba de gelo em 100 jogadores,100 oyuncuya Buz Bombası at,使用寒冰炸弹冰冻100位玩家,使用寒冰炸彈冰凍100位玩家,ระเบิดน้ำแข็งใส่ผู้เล่น 100 คน
SkillUnlockMission_51_0,상금으로 누적 10&#44;000&#44;000골드 받기,Collect 10&#44;000&#44;000 Gold reward,賞金で累積10&#44;000&#44;000GOLD受け取る,Соберите 10.000.000 Золота в качестве награды,Sammle 10.000.000 Gold an Belohnungen,Consigue 10.000.000 de oro,Gagner 10&#44;000&#44;000 de Pièces d’Or,Raccogli 10.000.000 di oro come ricompensa,Recolher 10.000.000 de recompensa de Ouro,10&#44;000&#44;000 Altın ödülü topla,从比赛中获得10&#44;000&#44;000金币,從比賽中獲得10&#44;000&#44;000金幣,เก็บสะสมรางวัลเป็นทอง 10&#44;000&#44;000 หน่วย
SkillUnlockMission_51_1,연속해서 10번 1위로 들어오기,Finish 1st for 10 consecutive times,10回連続で1位になる,Финишируйте первым 10 раз подряд,Werde 10 Mal hintereinander 1.,Termina el 1º 10 veces consecutivas,Finir 1er 10 fois d’affilée,Arriva per 1o per 10 volte consecutive,Termine 1ª por 10 vezes consecutivas,Art arda 10 kez 1. olarak bitir,连续10次比赛排名第1,連續10次比賽排名第1,จบอันดับที่ 1 จำนวน 10 ครั้งติดต่อกัน
SkillUnlockMission_19_0,금배지 50개 획득,Acquire 50 gold badges,金バッジを50個獲得す,Получите 50 золотых значков,Erhalte 50 Gold-Abzeichen,Consigue 50 medallas de oro,Recevoir 50 badges en or,Acquista 50 medaglie d'oro,Adquira 50 crachás de ouro,50 altın rozet kazan,获得50枚金质徽章,獲得50枚金質徽章,ได้รับตราทอง 50 อัน
SkillUnlockMission_19_1,52구역 42초 안에 들어오기,Finish Area 52 in 42 seconds,52区域に42秒以内に入る,Финишируйте в Зоне 52 за 42 сек.,Beende Area 52 in 42 Sekunden,Termina Área 52 en 42 segundos,Finir Zone 52 en 42 secondes,Completa l'Area 52 entro 42 secondi,Termine a Área 52 em 42 segundos,52. Bölgeyi 42 saniyede bitir,在42秒内完成52区关卡,在42秒內完成52區關卡,จบพื้นที่ 52 ภายใน 42 วินาที
SkillName_1,러닝화,Running Shoes,ランニングシューズ,Кроссовки,Laufschuhe,Zapatillas deportivas,Chaussure de course,Scarpe da corsa,Tênis de corrida,Koşu Ayakkabıları,运动鞋,運動鞋,รองเท้าวิ่ง
SkillInfo_1,평지에서 달리기 속도 +1,Running speed +1,平地で走る速度 +1,+1 к скорости бега,Laufgeschwindigkeit +1,Velocidad +1,Vitesse de course +1,Velocità di corsa + 1,Velocidade de corrida +1,Koşma hızı +1,跑动速度 +1,跑動速度 +1,ความเร็วการวิ่ง +1
SkillName_2,러닝양말,Running Socks,ランニングソックス,Спортивные носки,Rennsocken,Calcetines para correr,Chaussette de course,Calzini da corsa,Meias de corrida,Koşu Çorapları,运动袜,運動襪,ถุงเท้าวิ่ง
SkillInfo_2,평지에서 달리기 속도 +0.5,Running speed +0.5,平地で走る速度 +0.5,+0.5 к скорости бега,Laufgeschwindigkeit +0&#44;5,Velocidad +0&#44;5,Vitesse de course +0&#44;5,Velocità di corsa + 0&#44;5,Velocidade de corrida +0&#44;5,Koşma hızı +0.5,跑动速度 +0.5,跑動速度 +0.5,ความเร็วการวิ่ง +0.5
SkillName_3,음료수,Beverage,飲み物,Напиток,Getränk,Bebida,Boisson,Bibita,Bebida,İçecek,饮料,飲料,เครื่องดื่ม
SkillInfo_3,포인트를 4~6위로 통과시\n평지에서 달리기 속도 +0.5,On reaching checkpoint in 4th to 6th position&#44;\nRunning speed +0.5,ポイントを4位から6位で通過時\n平地で走る速度 +0.5,Если придёте к контрольной точки 4-м — 6-м&#44;\nСкорость бега +0.5,Beim erreichen des Checkpoints in 4. bis 6. Position\nLaufgeschwindigkeit +0&#44;5,Al llegar al punto de control entre el 4º y el 6º&#44;\nVelocidad +0&#44;5,En franchissant un point de contrôle entre la 4e et la 6e place&#44; \nVitesse de course +0&#44;5,Dopo aver raggiunto il checkpoint in posizione dalla 4a fino alla 6a&#44;\nVelocità di corsa + 0&#44;5,Ao atingir o ponto de verificação na 4ª à 6ª posição&#44;\nVelocidade de corrida +0&#44;5,Kontrol noktasına 4-6. sıralarda ulaşırsanız&#44;\nKoşma hızı +0.5,若到达检查点时位处第4，第5，第6名时，跑动速度 +0.5,若到達檢查點時位處第4，第5，第6名時，跑動速度 +0.5,เมื่อไปถึงจุดตรวจในอันดับที่ 4 ถึง 6\nความเร็วการวิ่ง +0.5
SkillName_4,무게추,Diving Weights,バラスト,Груз,Tauchgewichte,Inmersión,Lest de plongée,Pesi per immersioni,Pesos de Mergulho,Dalış Ağırlıkları,潜水员配重,潛水員配重,น้ำหนักถ่วงดำน้ำ
SkillInfo_4,하강 속도 +1,Falling speed +1,下降速度 +1,+1 к скорости падения,Fallgeschwindigkeit +1,Velocidad en picado +1,Vitesse de chute +1,Velocità di caduta + 1,Velocidade de queda +1,Düşme hızı +1,下降速度 +1,下降速度 +1,ความเร็วการตก +1
SkillName_5,부스터 업그레이드 킷,Booster Upgrade Kit,ブースターアップグレードキット,Набор ускорений,Booster-Upgrade-Kit,Kit de propulsión,Kit d’amélioration Booster,Kit aggiornamento Booster,Kit de atualização do Booster,Güçlendirici Yükseltme Kiti,加速器升级部件,加速器升級部件,ชุดอัปเกรดตัวเร่ง
SkillInfo_5,부스터 사용시\n평지에서 달리기 속도 +0.5,On using booster&#44;\nRunning speed +0.5,ブースター使用時\n平地で走る速度 +0.5,При использовании ускорения&#44;\nСкорость бега +0.5,Wenn du Boost nutzt\nLaufgeschwindigkeit +0&#44;5,Al usar el propulsor&#44;\nVelocidad +0&#44;5,En utilisant un Booster&#44;\nVitesse de course +0&#44;5,Usando il booster&#44;\nVelocità di corsa + 0&#44;5,Ao usar booster&#44;\nVelocidade de corrida +0&#44;5,Güçlendiriciyi kullandıktan sonra&#44;\nKoşma hızı +0.5,使用在加速器上\n使跑动速度 +0.5,使用在加速器上\n使跑動速度 +0.5,ขณะที่ใช้ตัวเร่ง\nความเร็วการวิ่ง +0.5
SkillName_6,미사일 업그레이드 킷,Missile Upgrade Kit,ミサイルアップグレードキット,Набор ракет,Raketen-Upgrade-Kit,Kit de misiles,Kit d’amélioration Missile,Kit aggiornamento missili,Kit de atualização de mísseis,Füze Yükseltme Kiti,导弹升级部件,導彈升級部件,ชุดอัปเกรดจรวดมิสไซล์
SkillInfo_6,미사일 발사 속도 +1\n미사일 공격력 +0.5 (기절시간 증가),Missile speed +1\nMissile damage +0.5 (Increase freeze time),ミサイル発射速度 +1\nミサイル攻撃力 +0.5 (気絶時間増加),+1 к скорости ракет\nУрон ракеты +0.5 (Увеличенное время заморозки),Raketengeschwindigkeit +1\nRaketenschaden +0&#44;5 (länger eingefroren),Velocidad del misil +1\nDaño del misil +0&#44;5 (Aumenta la congelación),Vitesse Missile +1\nDégât Missile +0&#44;5 (Augmente la durée du gèle),Velocità di missili + 1\nDanni da missili + 0&#44;5 (Aumenta il tempo di congelamento),Velocidade do míssil +1\nDanos mísseis +0&#44;5 (aumento do tempo de congelamento),Füze hızı +1\nFüze hasarı +0.5 (Donma süresini artır),导弹速度 +1\n导弹伤害 +0.5(增加冰冻时间),導彈速度 +1\n導彈傷害 +0.5(增加冰凍時間),ความเร็วจรวดมิสไซล์ +1\nพลังจรวดมิสไซล์ +0.5 (เพิ่มเวลาแช่แข็ง)
SkillName_7,얼음폭탄 업그레이드 킷,Ice Bomb Upgrade Kit,アイスボムアップグレードキット,Набор ледяных бомб,Eisbomben-Upgrade-Kit,Kit de bomba de hielo,Kit d’amélioration Bombe de Glace,Kit aggiornamento bombe di ghiaccio,Kit de atualização de bomba de gelo,Buz Bombası Yükseltme Kiti,寒冰炸弹升级部件,寒冰炸彈升級部件,ชุดอัปเกรดระเบิดน้ำแข็ง
SkillInfo_7,얼음폭탄 피해반경 +0.5\n얼음폭탄 공격력 +0.5 (기절시간 증가),Ice bomb damage area +0.5\nIce bomb damage +0.5 (Increase freeze time),アイスボムダメージ半径 +0.5\nアイスボム攻撃力 +0.5 (気絶時間増加),+0.5 к зоне поражения ледяной бомбы\nУрон ледяной бомбы +0.5 (Увеличенное время заморозки),Schadensgebiet Eisbombe +0&#44;5\nSchaden Eisbombe +0&#44;5 (länger eingefroren),Alcance de la bomba de hielo +0.5\nDaño bomba de hielo +0.5 (Aumenta la congelación),Zone de dégât +0&#44;5\nDégât Bombe de Glace +0&#44;5 (Augmente la durée du gèle),Area danneggiata da bomba di ghiaccio + 0&#44;5\Danni da bomba di ghiaccio + 0&#44;5 (Aumenta il tempo di congelamento),Área de dano da bomba de gelo +0&#44;5\ndano da bomba +0&#44;5 (Aumentar o tempo de congelamento),Buz bombası hasar alanı +0.5\nBuz bombası hasarı +0.5 (Donma süresini artır),寒冰炸弹伤害区域 +0.5\n寒冰炸弹伤害 +0.5(增加冰冻时间),寒冰炸彈傷害區域 +0.5\n寒冰炸彈傷害 +0.5(增加冰凍時間),พื้นที่ทำลายระเบิดน้ำแข็ง +0.5\nพลังระเบิดน้ำแข็ง +0.5 (เพิ่มเวลาแช่แข็ง)
SkillName_8,젤리트랩 업그레이드 킷,Jelly Trap Upgrade Kit,ゼリートラップアップグレードキット,Набор мармеладных ловушек,Gelée-Falle-Upgrade-Kit,Kit trampa de gelatina,Kit d’amélioration Piège Collant,Kit aggiornamento trappola gelatinosa,Kit de atualização de armadilha de Gelatina,Jöle Kapanı Yükseltme Kiti,果冻陷阱升级部件,果凍陷阱升級部件,ชุดอัปเกรดกับดักวุ้น
SkillInfo_8,젤리트랩 공격력 +0.5\n젤리트랩 사용 즉시 활성화,Jelly trap damage +0.5\nActivated instantly on use,ゼリートラップ攻撃力 +0.5\nゼリートラップ使用で即活性,+0.5 к урону мармеладных ловушек\nАктивируется моментально,Schaden Gelée-Falle +0&#44;5\nBei Nutzung sofort aktiviert,Daño trampa de gelatina +0&#44;5\nSe activa inmediatamente,Dégât Piège Collant +0&#44;5\nActivé instantanément,Danni da trappola gelatinosa + 0&#44;5\nAttivata subito dopo averla usata,Dano da armadilha de gelatinaa +0&#44;5\nAtivado instantaneamente no uso,Jöle kapanı hasarı +0.5\nKullanır kullanmaz etkinleşir,果冻陷阱伤害 +0.5\n使用后立即激活,果凍陷阱傷害 +0.5\n使用後立即激活,พลังกับดักวุ้น +0.5\nเปิดใช้งานทันทีเมื่อใช้
SkillName_9,아이젠,Shoe Spikes,アイゼン,Шипованная обувь,Schuhspikes,Zapatillas de taco,Chaussure à Pointes,Chiodi per scarpe,Pinos de sapato,Ayakkabı Çivileri,鞋钉,鞋釘,ตะปูรองเท้า
SkillInfo_9,벽점프 이동속도 +0.5,Wall jump speed +0.5,壁ジャンプ移動速度 +0.5,+0.5 к скорости запрыгивания на стену,Walljump-Geschwindigkeit +0&#44;5,Velocidad salto de pared +0&#44;5,Vitesse sur les murs +0&#44;5,Velocità di salto attraverso il muro + 0&#44;5,Velocidade de salto na parede +0&#44;5,Duvar atlama hızı +0.5,蹬墙跳速度 +0.5,蹬牆跳速度 +0.5,ความเร็วกระโดดกำแพง +0.5
SkillName_10,아이스크림,Ice Cream,アイスクリーム,Мороженное,Eiscreme,Helado,Crème Glacée,Gelato,Sorvete,Dondurma,冰激凌,冰激凌,ไอศกรีม
SkillInfo_10,미사일 피해 회복속도 +15%\n얼음폭탄 피해반경 +0.3,Missile strike recovery rate +15%\nIce bomb damage radius +0.3,ミサイルダメージ回復速度 +15%\nアイスボムダメージ半径 +0.3,+15% к скорости восстановления ракет\nРадиус поражения ледяной бомбы +0.3,Raketenangriff-Erholung +15%\nSchadensradius Eisbombe +0&#44;3,Porcentaje de recuperación ataque con misil +15 %\nRadio de daño bomba de hielo +0.3,Régénération +15% pour les frappes de Missile\n Rayon de Bombe de Glace +0&#44;3,Recupero dopo colpi di missile +15%\Raggio di danno delle bombe di ghiaccio + 0&#44;3,Taxa de recuperação de mísseis + 15%\nraio de dano da bomba de gelo +0&#44;3,Füze saldırısı iyileşme oranı +15%\nBuz bombası hasar yarıçapı +0.3,导弹恢复速度 +15%\n冰冻炸弹伤害范围 +0.3,導彈恢復速度 +15%\n冰凍炸彈傷害範圍 +0.3,อัตราการฟื้นฟูจากจรวดมิสไซล์ +15%\nรัศมีทำลายระเบิดน้ำแข็ง +0.3
SkillName_11,성냥,Matches,マッチ,Матчи,Zündhölzer,Cerillas,Allumettes,Partite,Fósforos,Kibritler,火柴,火柴,ไม้ขีด
SkillInfo_11,얼음폭탄 피해 회복속도 +7%,Ice bomb recovery rate +7%,アイスボムダメージ回復速度 +7%,+7% к скорости восстановления ледяной бомбы,Eisbomben-Erholung +7%,Porcentaje de recuperación bomba de hielo +7 %,Régénération +7% pour Bombe de Glace,Recupero dopo danni da bombe di ghiaccio + 7%,Taxa de recuperação de bombas de gelo + 7%,Buz bombası iyileşme oranı +7%,冰冻炸弹恢复速度 +7%,冰凍炸彈恢復速度 +7%,อัตราการฟื้นฟูจากระเบิดน้ำแข็ง +7%
SkillName_12,얼음망치,Ice Hammer,アイスハンマー,Ледяной молоток,Eishammer,Martillo de hielo,Marteau Gelée,Martello di ghiaccio,Martelo de gelo,Buz Çekici,冰霜之锤,冰霜之鎚,ค้อนน้ำแข็ง
SkillInfo_12,얼음폭탄 피해 회복속도 +15%,Ice bomb recovery rate +15%,アイスボムダメージ回復速度 +15%,+15% к скорости восстановления Ледяной бомбы,Eisbomben-Erholung +15%,Porcentaje de recuperación bomba de hielo +15 %,Régénération +15% pour Bombe de Glace,Recupero dopo danni da bombe di ghiaccio + 15%,Taxa de recuperação da bomba de gelo + 15%,Buz bombası iyileşme oranı +15%,冰冻炸弹恢复速度 +15%,冰凍炸彈恢復速度 +15%,อัตราการฟื้นฟูจากระเบิดน้ำแข็ง +15%
SkillName_13,커피,Coffee,コーヒー,Кофе,Kaffee,Café,Café,Caffè,Café,Kahve,咖啡,咖啡,กาแฟ
SkillInfo_13,젤리트랩 피해 회복속도 +10%\n마지막 라운드 평지속도 +1,Jelly trap recovery rate +10%\nRunning speed on last lap +1,ゼリートラップダメージ回復速度 +10%\n最後のラウンド平地速度 +1,+10% к скорости восстановления мармеладной ловушки\nСкорость бега на последнем круге +1,Gelée-Falle-Erholung +10%\nLaufgeschwindigkeit letzte Runde +1,Porcentaje de recuperación trampa de gelatina +10v%\nVelocidad última vuelta +1,Régénération +10 pour Piège Collant\nVitesse de course +1 au dernier tour,Recupero dopo danni da trappola gelatinosa + 10%\nVelocità di corsa dell'ultimo giro + 1,Taxa de recuperação da armadilha de Gelatina + 10%\nVelocidade de deslocamento na última volta +1,Jöle kapanı iyileşme oranı +10%\nSon turdaki koşma hızı +1,果冻陷阱恢复速度 +10%\n比赛最后一圈移动速度 +1,果凍陷阱恢復速度 +10%\n比賽最後一圈移動速度 +1,อัตราการฟื้นฟูจากกับดักวุ้น +10%\nความเร็วการวิ่งในรอบสุดท้าย +1
SkillName_14,부스터 배터리,Booster Battery,ブースターバッテリー,Батарея ускорения,Booster-Batterie,Batería auxiliar,Batterie pour Booster,Batteria Booster,Bateria Booster,Güçlendirici Batarya,加速器电池,加速器電池,แบตเตอรี่ตัวเร่ง
SkillInfo_14,부스터 지속시간 +0.5초,Booster duration +0.5 second,ブースター持続時間 +0.5秒,+0.5 сек. к длительности ускорения,Booster-Dauer +0&#44;5 Sekunden,Duración propulsión +0&#44;5 segundos,Durée du Booser +0&#44;5 secondes,Durata Booster + 0&#44;5 secondo,Duração do Booster +0&#44;5 segundo,Güçlendirici süresi +0.5 saniyedir,加速器持续时间 +0.5 秒,加速器持續時間 +0.5 秒,ระยะเวลาตัวเร่ง +0.5 วินาที
SkillName_15,고용량 부스터 배터리,High-capacity Booster Battery,大容量ブースターバッテリー,Ёмкая батарея ускорения,Hochleistungs-Booster-Batterie,Batería auxiliar de alta capacidad,Batterie haute capacité pour Booster,Batteria Booster ad alta capacità,Bateria Booster de Alta Capacidade,Yüksek kapasiteli Güçlendirici Batarya,大容量加速器电池,大容量加速器電池,แบตเตอรี่ตัวเร่งความจุสูง
SkillInfo_15,부스터 지속시간 +1초,Booster duration +1 second,ブースター持続時間 +1秒,+1 сек. к длительности ускорения,Booster-Dauer +1 Sekunde,Duración propulsión +1 segundo,Durée du Booster +1 secondes,Durata Booster + 1 secondo,Duração do Booster +1 segundo,Güçlendirici süresi +1 saniyedir,加速器持续时间 +1 秒,加速器持續時間 +1 秒,ระยะเวลาตัวเร่ง +1 วินาที
SkillName_16,쉴드 배터리,Shield Battery,シールドバッテリー,Батарея щита,Schild-Batterie,Protector de batería,Batterie pour Bouclier,Batteria scudo,Bateria do escudo,Kalkan Bataryası,护盾电池,護盾電池,แบตเตอรี่โล่
SkillInfo_16,쉴드 지속시간 +0.5초,Shield duration +0.5 second,シールド持続時間 +0.5秒,+0.5 сек. к длительности щита,Schild-Dauer +0&#44;5 Sekunden,Duración del escudo +0&#44;5 segundos,Durée du Bouclier +0&#44;5 secondes,Durata dello scudo + 0&#44;5 secondo,Duração da blindagem +0&#44;5 segundo,Kalkan süresi +0.5 saniyedir,护盾持续时间 +0.5 秒,護盾持續時間 +0.5 秒,ระยะเวลาโล่ 0.5 วินาที
SkillName_17,고용량 쉴드 배터리,High-capacity Shield Battery,大容量シールドバッテリー,Ёмкая батарея щита,Hochleistungs-Schild-Batterie,Protector de batería de alta capacidad,Batterie haute capacité pour Bouclier,Batteria scudo ad alta capacità,Bateria de Escudo de Alta Capacidade,Yüksek kapasiteli Kalkan Bataryası,大容量护盾电池,大容量護盾電池,แบตเตอรี่โล่ความจุสูง
SkillInfo_17,쉴드 지속시간 +1초,Shield duration +1 second,シールド持続時間 +1秒,+1 сек. к длительности щита,Schild-Dauer +1 Sekunde,Duración del escudo +1 segundo,Durée du Bouclier +1 secondes,Durata dello scudo + 1 secondo,Duração do escudo +1 segundo,Kalkan süresi +1 saniyedir,护盾持续时间 +1 秒,護盾持續時間 +1 秒,ระยะเวลาโล่ 1 วินาที
SkillName_18,별,Star,星,Звезда,Stern,Estrella,Étoile,Stella,Estrela,Yıldız,星星,星星,ดาว
SkillInfo_18,골드 추가획득 +5%,Additional Gold acquired +5%,GOLD追加獲得 +5%,Получено +5% дополнительного Золота,Zusätzlich +5% Gold erhalten,Oro adicional adquirido +5 %,+5% de Pièces d’Or,Oro acquistato extra + 5%,Ouro adicional adquirido + 5%,Alınan İlave Altın: +5%,额外金币收入 +5%,額外金幣收入 +5%,ได้รับทองเพิ่ม +5%
SkillName_19,황금열쇠,Golden Key,黄金キー,Золотой ключ,Goldener Schlüssel,Llave dorada,Clé d’Or,Chiave d'oro,Chave de ouro,Altın Anahtar,金钥匙,金鑰匙,กุญแจทอง
SkillInfo_19,골드 추가획득 +10%,Additional Gold acquired +10%,GOLD追加獲得 +10%,Получено +10% дополнительного Золота,Zusätzlich +10% Gold erhalten,Oro adicional adquirido +10 %,+10% de Pièces d’Or,Oro acquistato extra + 10%,Ouro adicional adquirido + 10%,Alınan İlave Altın: +10%,额外金币收入 +10%,額外金幣收入 +10%,ได้รับทองเพิ่ม +10%
SkillName_20,에너지바,Energy Bar,エネルギーバー,Энергетический батончик,Energieriegel,Barra de energía,Barre énergisante,Barretta energetica,Barra de energia,Enerji Barı,能量棒,能量棒,แท่งพลังงาน
SkillInfo_20,미사일&#44;얼음폭탄&#44;젤리트랩\n 피해시 회복속도 +10%,Missile&#44;Ice Bomb&#44;Jelly Trap\n recovery rate +10%,ミサイル&#44;アイスボム&#44;ゼリートラップ\n ダメージ回復速度 +10%,Ракета&#44; Ледяная бомба&#44; Мармеладная ловушка\n скорость восстановления +10%,Raketen-&#44; Eisbomben-&#44; Gelée-Fallen-\n Erholung +10%,Misil&#44; Bomba de hielo&#44; Trampa de gelatina\n porcentaje de recuperación +10 %,Régénération +10% pour Missile&#44; Bombe de Glace&#44; Piège Collant,Ricovero +10% da: Missile&#44; Bomba di ghiaccio&#44; Trappola gelatinosa,Míssíl&#44; Bomba de Gelob&#44; Armadilha de Gelatina\n Taxa de recuperação + 10%,Füze&#44; Buz Bombası&#44; Jöle Kapanı\n iyileşme oranı +10%,导弹&#44;寒冰炸弹&#44;果冻陷阱\n 恢复速度 +10%,導彈&#44;寒冰炸彈&#44;果凍陷阱\n 恢復速度 +10%,จรวดมิสไซล์&#44; ระเบิดน้ำแข็ง&#44; กับดักวุ้น\nอัตราการฟื้นฟู +10%
ConditionName_0,번개,Lightning,雷,Гроза,Blitz,Relámpago,Orage,Fulmine,Relâmpago,Yıldırım,闪电,閃電,สายฟ้า
ConditionInfo_0,모든 아이템 사용 불가,All items disabled,全てのアイテム使用不可,Все предметы не действуют,Alle Items unterdrückt,Se desactivan todos los objetos,Désactive tous les objets,Tutti gli elementi disabilitati,Todas os itens desativados,Tüm itemler devre dışı,所有技能无效,所有技能無效,ใช้งานสิ่งของไม่ได้เลย
ConditionName_1,비,Rain,雨,Дождь,Regen,Lluvia,Pluie,Pioggia,Chuva,Yağmur,大雨,大雨,ฝนตก
ConditionInfo_1,보유 아이템 중 2개 사용 불가,2 of items disabled,所持アイテムの2つ使用不可,2 предмета не действуют,2 Items unterdrückt,Se desactivan dos objetos,Désactive 2 des objets,2 elementi disabilitati,2 itens desativados,Itemlerin 2 tanesi devre dışı,2个技能无效,2個技能無效,ใช้งานสิ่งของไม่ได้ 2 อย่าง
ConditionName_2,흐림,Cloudy,曇り,Пасмурно,Wolkig,Nublado,Nuageux,Nuvoloso,Nublado,Bulutlu,多云,多雲,เมฆมาก
ConditionInfo_2,보유 아이템 중 1개 사용 불가,1 of items disabled,所持アイテムの1つ使用不可,1 предмет не действует,1 Item unterdrückt,Se desactiva un objeto,Désactive 1 des objets,1 elemento disabilitato,1 item desativado,Itemlerin 1 tanesi devre dışı,1个无效,1個無效,ใช้งานสิ่งของไม่ได้ 1 อย่าง
ConditionName_3,맑음,Clear,晴れ,Ясно,Klar,Despejado,Ensoleillé,Sereno,Claro,Temizle,晴天,晴天,แจ่มใส
ConditionInfo_3,모든 아이템 사용가능,All items enabled,全てのアイテム使用可能,Все предметы активированы,Alle Items verfügbar,Se activan todos los objetos,Tous les objets sont actifs,Tutti gli elementi abilitati,Todas os itens ativados,Tüm itemler etkin,所有技能可用,所有技能可用,ใช้งานสิ่งของได้ทุกอย่าง
ConditionName_4,별무리,Stars,星座,Звезды,Sterne,Estrellas,Étoilé,Stelle,Estrelas,Yıldızlar,星空,星空,ดวงดาว
ConditionInfo_4,모든 아이템 사용가능\n골드 30% 추가획득,All items enabled\nAcquire +30% Gold,全てのアイテム使用可能\nGOLD30%追加獲得,Все предметы активированы\nПолучить +30% Золота,Alle Items verfügbar\nErhalte +30% Gold,Se activan todos los objetos\nConsigue +30 % de oro,Tous les objets sont actifs\n+30% de Pièces d’Or,Tutti gli elementi abilitati\nAcquista +30% di oro,Ativar todos os itens\n Adquira  + 30% Ouro,Tüm itemler etkin\n+30% Altın Al,所有技能可用\n额外金币收入 +30%,所有技能可用\n額外金幣收入 +30%,ใช้งานสิ่งของได้ทุกอย่าง\nได้รับทอง +30%
SpaceStation,우주 정거장,Space Station,宇宙ステーション,Космическая станция,Raumstation,Estación Espacial,Station Spatiale,Stazione Spaziale,Estação Espacial,Uzay Istasyonu,空间站,空間站,สถานีอวกาศ
Rollback,되돌리기,Rollback,元に戻す,Oтмена,Rollback,Restaurar,Rollback,Rollback,Rollback,Geri alma,回滚,回滾,ย้อนกลับ
PITitle,개인정보 이용안내,Use of Personal Information,個人情報利用のご案内,Использование личной информации,Nutzung persönlicher Informationen,Uso de la información personal,Utilisation des informations personnelles,Uso di Informazioni Personali,Uso da informação pessoal,Kişisel Veri kullanımı,个人隐私信息使用说明,個人隱私信息使用說明,การใช้งานข้อมูลส่วนตัว
PIDesc,본게임은 게임 진행과 고객 지원을 위해\n사용자의 개인정보 중 일부를 사용합니다.,We may use parts of personal information this game collects to provide game service and support.,本ゲームはゲーム進行と顧客支援のためにユーザーの個人情報の一部を使用します。,Мы можем использовать отдельные аспекты личной информации&#44; которые собирает эта игра&#44; для предоставления игровых услуг и поддержки.,Wir behalten uns vor&#44; Teile persönlicher Informationen&#44; die das Spiel sammelt&#44; zu verwenden&#44; um Spieleservice und betreuung anzubieten,Podríamos usar partes de la información personal que este juego recoge para brindar servicio y ayuda del juego.,Nous sommes susceptibles d'utiliser certaines informations personnelles collectées par le jeu afin d'en assurer le service et l'assistance.,Potremmo usare parte delle informazioni personali raccolte da questo gioco per fornire servizi e supporto.,Nós podemos usar partes da sua informação  pessoal que este jogo recolhe&#44; para fornecer serviço e ajuda para o jogo.,Bu oyunun topladığı kişisel verilerin bir kısmı oyun hizmet ve destekleri için kullanılabilir.,本游戏将为游戏的运行及用户服务使用用户部分隐私信息。,本遊戲將為遊戲的運行及用戶服務使用用戶部分隱私信息。,เราอาจจะใช้งานข้อมูลส่วนตัวบางส่วนในเกมนี้เพื่อมอบบริการและความช่วยเหลือของเกม.
PIInfoButton,개인정보 보호정책 약관,Privacy Policy,個人情報保護政策の約款,Конфиденциальность,Datenschutzerklärung,Normas de la privacidad,Politique de confidentialité,Informativa sulla Privacy,Política de privacidade,Gizlilik Politikası,个人隐私保护条款,個人隱私保護條款,นโยบายความเป็นส่วนตัว
PICheckBoxDesc,약관을 확인했으며&#44; 동의합니다.,I have read and agree to the privacy policy.,約款を確認し、同意します。,Я прочитал и согласен с\nполитикой конфиденциальности,Ich habe die Datenschutzerklärung\n gelesen und akzeptiere sie.,He leído y aceptado las Normas\nde la privacidad,J'ai lu et j'approuve la politique\nde confidentialité,Ho letto e sono d'accordo con\nl'informativa sulla privacy,Eu li e aceitei a Política\nde privacidade,Gizlilik politikasını okudum\nve kabul ediyorum,已阅读条款并同意,已閱讀條款並同意,ฉันได้อ่านและยอมรับนโยบาย\nความเป็นส่วนตัวแล้ว
Confirm,확인,Confirm,確認,Подтвердить,Bestätigen,Confirmar,Confirmer,Conferma,Confirme,Onayla,确认﻿,確認﻿,ยืนยัน