Level,expAmount,goalExp,reward
1,0,150,0
2,150,250,200
3,400,250,200
4,650,250,200
5,900,250,200
6,1150,313,250
7,1463,313,250
8,1775,313,250
9,2088,313,250
10,2400,313,250
11,2713,391,313
12,3103,391,313
13,3494,391,313
14,3884,391,313
15,4275,391,313
16,4666,488,391
17,5154,488,391
18,5642,488,391
19,6130,488,391
20,6619,488,391
21,7107,610,488
22,7717,610,488
23,8328,610,488
24,8938,610,488
25,9548,610,488
26,10159,763,610
27,10922,763,610
28,11685,763,610
29,12448,763,610
30,13211,763,610
31,13973,954,763
32,14927,954,763
33,15881,954,763
34,16835,954,763
35,17788,954,763
36,18742,1192,954
37,19934,1192,954
38,21126,1192,954
39,22318,1192,954
40,23510,1192,954
41,24702,1490,1192
42,26192,1490,1192
43,27683,1490,1192
44,29173,1490,1192
45,30663,1490,1192
46,32153,1863,1490
47,34016,1863,1490
48,35878,1863,1490
49,37741,1863,1490
50,39603,1863,1490
51,41466,2328,1863
52,43794,2328,1863
53,46123,2328,1863
54,48451,2328,1863
55,50779,2328,1863
56,53108,2910,2328
57,56018,2910,2328
58,58928,2910,2328
59,61839,2910,2328
60,64749,2910,2328
61,67660,3638,2910
62,71298,3638,2910
63,74936,3638,2910
64,78574,3638,2910
65,82211,3638,2910
66,85849,4547,3638
67,90397,4547,3638
68,94944,4547,3638
69,99492,4547,3638
70,104039,4547,3638
71,108587,5684,4547
72,114271,5684,4547
73,119956,5684,4547
74,125640,5684,4547
75,131324,5684,4547
76,137009,7105,5684
77,144114,7105,5684
78,151219,7105,5684
79,158325,7105,5684
80,165430,7105,5684
81,172536,8882,7105
82,181417,8882,7105
83,190299,8882,7105
84,199181,8882,7105
85,208063,8882,7105
86,216945,11102,8882
87,228047,11102,8882
88,239149,11102,8882
89,250251,11102,8882
90,261354,11102,8882
91,272456,13878,11102
92,286334,13878,11102
93,300211,13878,11102
94,314089,13878,11102
95,327967,13878,11102
96,341845,17347,13878
97,359192,17347,13878
98,376539,17347,13878
99,393886,17347,13878
100,411234,17347,13878
101,428581,21684,17347
102,450265,21684,17347
103,471949,21684,17347
104,493633,21684,17347
105,515317,21684,17347
106,537001,27105,21684
107,564106,27105,21684
108,591211,27105,21684
109,618316,27105,21684
110,645421,27105,21684
111,672526,33881,27105
112,706408,33881,27105
113,740289,33881,27105
114,774170,33881,27105
115,808052,33881,27105
116,841933,42352,33881
117,884285,42352,33881
118,926636,42352,33881
119,968988,42352,33881
120,1011340,42352,33881
121,1053691,52940,42352
122,1106631,52940,42352
123,1159570,52940,42352
124,1212510,52940,42352
125,1265449,52940,42352
126,1318389,66174,52940
127,1384563,66174,52940
128,1450738,66174,52940
129,1516912,66174,52940
130,1583087,66174,52940
131,1649261,82718,66174
132,1731979,82718,66174
133,1814697,82718,66174
134,1897415,82718,66174
135,1980133,82718,66174
136,2062852,103398,82718
137,2166249,103398,82718
138,2269647,103398,82718
139,2373044,103398,82718
140,2476442,103398,82718
141,2579839,129247,103398
142,2709086,129247,103398
143,2838333,129247,103398
144,2967580,129247,103398
145,3096827,129247,103398
146,3226074,161559,129247
147,3387633,161559,129247
148,3549192,161559,129247
149,3710750,161559,129247
150,3872309,161559,129247
151,4033868,201948,161559
152,4235816,201948,161559
153,4437765,201948,161559
154,4639713,201948,161559
155,4841661,201948,161559
156,5043610,252435,201948
157,5296045,252435,201948
158,5548481,252435,201948
159,5800916,252435,201948
160,6053352,252435,201948
161,6305787,315544,252435
162,6621332,315544,252435
163,6936876,315544,252435
164,7252420,315544,252435
165,7567965,315544,252435
166,7883509,394430,315544
167,8277940,394430,315544
168,8672370,394430,315544
169,9066800,394430,315544
170,9461231,394430,315544
171,9855661,493038,394430
172,10348699,493038,394430
173,10841737,493038,394430
174,11334776,493038,394430
175,11827814,493038,394430
176,12320852,616298,493038
177,12937149,616298,493038
178,13553447,616298,493038
179,14169744,616298,493038
180,14786042,616298,493038
181,15402340,770372,616298
182,16172712,770372,616298
183,16943084,770372,616298
184,17713455,770372,616298
185,18483827,770372,616298
186,19254199,962965,770372
187,20217164,962965,770372
188,21180129,962965,770372
189,22143094,962965,770372
190,23106059,962965,770372
191,24069024,1203706,962965
192,25272731,1203706,962965
193,26476437,1203706,962965
194,27680143,1203706,962965
195,28883849,1203706,962965
196,30087555,1504633,1203706
197,31592188,1504633,1203706
198,33096821,1504633,1203706
199,34601454,1504633,1203706
200,36106086,1504633,1203706
201,37610719,1880791,1504633
202,39491510,1880791,1504633
203,41372301,1880791,1504633
204,43253092,1880791,1504633
205,45133883,1880791,1504633
206,47014674,2350989,1880791
207,49365663,2350989,1880791
208,51716651,2350989,1880791
209,54067640,2350989,1880791
210,56418629,2350989,1880791
211,58769618,2938736,2350989
212,61708353,2938736,2350989
213,64647089,2938736,2350989
214,67585825,2938736,2350989
215,70524561,2938736,2350989
216,73463297,3673420,2938736
217,77136717,3673420,2938736
218,80810137,3673420,2938736
219,84483556,3673420,2938736
220,88156976,3673420,2938736
221,91830396,4591775,3673420
222,96422171,4591775,3673420
223,101013946,4591775,3673420
224,105605721,4591775,3673420
225,110197495,4591775,3673420
226,114789270,5739719,4591775
227,120528989,5739719,4591775
228,126268707,5739719,4591775
229,132008426,5739719,4591775
230,137748144,5739719,4591775
231,143487863,7174648,5739719
232,150662511,7174648,5739719
233,157837159,7174648,5739719
234,165011807,7174648,5739719
235,172186455,7174648,5739719
236,179361103,8968310,7174648
237,188329414,8968310,7174648
238,197297724,8968310,7174648
239,206266034,8968310,7174648
240,215234344,8968310,7174648
241,224202654,11210388,8968310
242,235413042,11210388,8968310
243,246623430,11210388,8968310
244,257833817,11210388,8968310
245,269044205,11210388,8968310
246,280254593,14012985,11210388
247,294267578,14012985,11210388
248,308280562,14012985,11210388
249,322293547,14012985,11210388
250,336306531,14012985,11210388
251,350319516,17516231,14012985
252,367835747,17516231,14012985
253,385351978,17516231,14012985
254,402868208,17516231,14012985
255,420384439,17516231,14012985
256,437900670,21895289,17516231
257,459795959,21895289,17516231
258,481691247,21895289,17516231
259,503586536,21895289,17516231
260,525481824,21895289,17516231
261,547377113,27369111,21895289
262,574746223,27369111,21895289
263,602115334,27369111,21895289
264,629484445,27369111,21895289
265,656853555,27369111,21895289
266,684222666,34211388,27369111
267,718434054,34211388,27369111
268,752645442,34211388,27369111
269,786856831,34211388,27369111
270,821068219,34211388,27369111
271,855279607,42764235,34211388
272,898043843,42764235,34211388
273,940808078,42764235,34211388
274,983572313,42764235,34211388
275,1026336549,42764235,34211388
276,1069100784,53455294,42764235
277,1122556078,53455294,42764235
278,1176011372,53455294,42764235
279,1229466667,53455294,42764235
280,1282921961,53455294,42764235
281,1336377255,66819118,53455294
282,1403196373,66819118,53455294
283,1470015491,66819118,53455294
284,1536834608,66819118,53455294
285,1603653726,66819118,53455294
286,1670472844,83523897,66819118
287,1753996741,83523897,66819118
288,1837520638,83523897,66819118
289,1921044535,83523897,66819118
290,2004568433,83523897,66819118
291,2088092330,104404871,83523897
292,2192497201,104404871,83523897
293,2296902073,104404871,83523897
294,2401306944,104404871,83523897
295,2505711816,104404871,83523897
296,2610116687,130506089,104404871
297,2740622777,130506089,104404871
298,2871128866,130506089,104404871
299,3001634955,130506089,104404871
300,3132141045,130506089,104404871